(kicad_pcb
	(version 20240108)
	(generator "pcbnew")
	(generator_version "8.0")
	(general
		(thickness 1.6)
		(legacy_teardrops no)
	)
	(paper "A4")
	(layers
		(0 "F.Cu" signal)
		(31 "B.Cu" signal)
		(32 "B.Adhes" user "B.Adhesive")
		(33 "F.Adhes" user "F.Adhesive")
		(34 "B.Paste" user)
		(35 "F.Paste" user)
		(36 "B.SilkS" user "B.Silkscreen")
		(37 "F.SilkS" user "F.Silkscreen")
		(38 "B.Mask" user)
		(39 "F.Mask" user)
		(40 "Dwgs.User" user "User.Drawings")
		(41 "Cmts.User" user "User.Comments")
		(42 "Eco1.User" user "User.Eco1")
		(43 "Eco2.User" user "User.Eco2")
		(44 "Edge.Cuts" user)
		(45 "Margin" user)
		(46 "B.CrtYd" user "B.Courtyard")
		(47 "F.CrtYd" user "F.Courtyard")
		(48 "B.Fab" user)
		(49 "F.Fab" user)
		(50 "User.1" user)
		(51 "User.2" user)
		(52 "User.3" user)
		(53 "User.4" user)
		(54 "User.5" user)
		(55 "User.6" user)
		(56 "User.7" user)
		(57 "User.8" user)
		(58 "User.9" user)
	)
	(setup
		(pad_to_mask_clearance 0)
		(allow_soldermask_bridges_in_footprints no)
		(pcbplotparams
			(layerselection 0x00010fc_ffffffff)
			(plot_on_all_layers_selection 0x0000000_00000000)
			(disableapertmacros no)
			(usegerberextensions no)
			(usegerberattributes yes)
			(usegerberadvancedattributes yes)
			(creategerberjobfile yes)
			(dashed_line_dash_ratio 12.000000)
			(dashed_line_gap_ratio 3.000000)
			(svgprecision 4)
			(plotframeref no)
			(viasonmask no)
			(mode 1)
			(useauxorigin no)
			(hpglpennumber 1)
			(hpglpenspeed 20)
			(hpglpendiameter 15.000000)
			(pdf_front_fp_property_popups yes)
			(pdf_back_fp_property_popups yes)
			(dxfpolygonmode yes)
			(dxfimperialunits yes)
			(dxfusepcbnewfont yes)
			(psnegative no)
			(psa4output no)
			(plotreference yes)
			(plotvalue yes)
			(plotfptext yes)
			(plotinvisibletext no)
			(sketchpadsonfab no)
			(subtractmaskfromsilk no)
			(outputformat 1)
			(mirror no)
			(drillshape 1)
			(scaleselection 1)
			(outputdirectory "")
		)
	)
	(net 0 "")
	(net 1 "+3.3V")
	(net 2 "GND")
	(net 3 "Net-(D1-K)")
	(footprint "Capacitor_SMD:C_0805_2012Metric_Pad1.18x1.45mm_HandSolder"
		(layer "F.Cu")
		(uuid "30b21493-d616-4e17-943d-9a784bde0cf2")
		(at 134.5 110.4625 -90)
		(descr "Capacitor SMD 0805 (2012 Metric), square (rectangular) end terminal, IPC_7351 nominal with elongated pad for handsoldering. (Body size source: IPC-SM-782 page 76, https://www.pcb-3d.com/wordpress/wp-content/uploads/ipc-sm-782a_amendment_1_and_2.pdf, https://docs.google.com/spreadsheets/d/1BsfQQcO9C6DZCsRaXUlFlo91Tg2WpOkGARC1WS5S8t0/edit?usp=sharing), generated with kicad-footprint-generator")
		(tags "capacitor handsolder")
		(property "Reference" "C1"
			(at 0 -1.68 90)
			(layer "F.SilkS")
			(uuid "0b968302-ceb9-4ea9-aa71-440f3617ea56")
			(effects
				(font
					(size 1 1)
					(thickness 0.15)
				)
			)
		)
		(property "Value" "C"
			(at 0 1.68 90)
			(layer "F.Fab")
			(uuid "da90dc6c-0493-42b8-93c0-c4d56360399c")
			(effects
				(font
					(size 1 1)
					(thickness 0.15)
				)
			)
		)
		(property "Footprint" "Capacitor_SMD:C_0805_2012Metric_Pad1.18x1.45mm_HandSolder"
			(at 0 0 -90)
			(unlocked yes)
			(layer "F.Fab")
			(hide yes)
			(uuid "4798d37f-6b6d-46c8-af2b-636004a3d865")
			(effects
				(font
					(size 1.27 1.27)
					(thickness 0.15)
				)
			)
		)
		(property "Datasheet" ""
			(at 0 0 -90)
			(unlocked yes)
			(layer "F.Fab")
			(hide yes)
			(uuid "9cd724e2-cc9e-4422-a01c-cee81ee73750")
			(effects
				(font
					(size 1.27 1.27)
					(thickness 0.15)
				)
			)
		)
		(property "Description" "Unpolarized capacitor"
			(at 0 0 -90)
			(unlocked yes)
			(layer "F.Fab")
			(hide yes)
			(uuid "dbe3d1d3-baba-431e-b31a-ac1c54454932")
			(effects
				(font
					(size 1.27 1.27)
					(thickness 0.15)
				)
			)
		)
		(property ki_fp_filters "C_*")
		(path "/7b6dd441-d061-43d3-9ad3-d3acdd4edccd")
		(sheetname "Root")
		(sheetfile "non_rectangular_smd.kicad_sch")
		(attr smd)
		(fp_line
			(start -0.261252 0.735)
			(end 0.261252 0.735)
			(stroke
				(width 0.12)
				(type solid)
			)
			(layer "F.SilkS")
			(uuid "3f86ef38-0acf-462d-9c3f-c3c706448996")
		)
		(fp_line
			(start -0.261252 -0.735)
			(end 0.261252 -0.735)
			(stroke
				(width 0.12)
				(type solid)
			)
			(layer "F.SilkS")
			(uuid "fb62ac46-1921-481e-a4ff-cdd026cbac27")
		)
		(fp_line
			(start -1.88 0.98)
			(end -1.88 -0.98)
			(stroke
				(width 0.05)
				(type solid)
			)
			(layer "F.CrtYd")
			(uuid "654079da-6927-4862-b824-1f24a5b8db71")
		)
		(fp_line
			(start 1.88 0.98)
			(end -1.88 0.98)
			(stroke
				(width 0.05)
				(type solid)
			)
			(layer "F.CrtYd")
			(uuid "2bd3f899-bd7c-4b05-8139-650709f457f7")
		)
		(fp_line
			(start -1.88 -0.98)
			(end 1.88 -0.98)
			(stroke
				(width 0.05)
				(type solid)
			)
			(layer "F.CrtYd")
			(uuid "4a9ee158-db31-4613-9c52-5ec84f90a9eb")
		)
		(fp_line
			(start 1.88 -0.98)
			(end 1.88 0.98)
			(stroke
				(width 0.05)
				(type solid)
			)
			(layer "F.CrtYd")
			(uuid "53eff332-350f-479f-a598-438634ceb3f2")
		)
		(fp_line
			(start -1 0.625)
			(end -1 -0.625)
			(stroke
				(width 0.1)
				(type solid)
			)
			(layer "F.Fab")
			(uuid "e2f3981d-fd64-48b2-a5dc-25dc925e4bf1")
		)
		(fp_line
			(start 1 0.625)
			(end -1 0.625)
			(stroke
				(width 0.1)
				(type solid)
			)
			(layer "F.Fab")
			(uuid "1375b33a-c8bf-4f03-a72b-9adb65ccc2df")
		)
		(fp_line
			(start -1 -0.625)
			(end 1 -0.625)
			(stroke
				(width 0.1)
				(type solid)
			)
			(layer "F.Fab")
			(uuid "02a7dc05-01f7-466d-8212-a951d0674d52")
		)
		(fp_line
			(start 1 -0.625)
			(end 1 0.625)
			(stroke
				(width 0.1)
				(type solid)
			)
			(layer "F.Fab")
			(uuid "41a79b7c-735c-4daf-ae6f-d3ddfa5ee0b9")
		)
		(fp_text user "${REFERENCE}"
			(at 0 0 90)
			(layer "F.Fab")
			(uuid "d90cc03a-8430-4f96-a126-6942a0f78dab")
			(effects
				(font
					(size 0.5 0.5)
					(thickness 0.08)
				)
			)
		)
		(pad "1" smd roundrect
			(at -1.0375 0 270)
			(size 1.175 1.45)
			(layers "F.Cu" "F.Paste" "F.Mask")
			(roundrect_rratio 0.212766)
			(net 1 "+3.3V")
			(pintype "passive")
			(uuid "3498cd4e-aa7a-4e47-bd4b-0bfdeb790d43")
		)
		(pad "2" smd roundrect
			(at 1.0375 0 270)
			(size 1.175 1.45)
			(layers "F.Cu" "F.Paste" "F.Mask")
			(roundrect_rratio 0.212766)
			(net 2 "GND")
			(pintype "passive")
			(uuid "a0536a6d-ab05-479e-841c-852efe6268d7")
		)
		(model "${KICAD8_3DMODEL_DIR}/Capacitor_SMD.3dshapes/C_0805_2012Metric.wrl"
			(offset
				(xyz 0 0 0)
			)
			(scale
				(xyz 1 1 1)
			)
			(rotate
				(xyz 0 0 0)
			)
		)
	)
	(footprint "Diode_SMD:D_1210_3225Metric_Pad1.42x2.65mm_HandSolder"
		(layer "F.Cu")
		(uuid "4acb8f14-2b64-4806-8342-498028219daf")
		(at 138.4875 110 -90)
		(descr "Diode SMD 1210 (3225 Metric), square (rectangular) end terminal, IPC_7351 nominal, (Body size source: http://www.tortai-tech.com/upload/download/2011102023233369053.pdf), generated with kicad-footprint-generator")
		(tags "diode handsolder")
		(property "Reference" "D1"
			(at 0 -2.28 90)
			(layer "F.SilkS")
			(uuid "6b34830c-7fda-49d6-87c7-3fb39e71999b")
			(effects
				(font
					(size 1 1)
					(thickness 0.15)
				)
			)
		)
		(property "Value" "D"
			(at 0 2.28 90)
			(layer "F.Fab")
			(uuid "261a1464-f7f7-453e-abe0-4ecdeaa67497")
			(effects
				(font
					(size 1 1)
					(thickness 0.15)
				)
			)
		)
		(property "Footprint" "Diode_SMD:D_1210_3225Metric_Pad1.42x2.65mm_HandSolder"
			(at 0 0 -90)
			(unlocked yes)
			(layer "F.Fab")
			(hide yes)
			(uuid "77220e19-ce7d-4a6b-9445-05f3d769fd4a")
			(effects
				(font
					(size 1.27 1.27)
					(thickness 0.15)
				)
			)
		)
		(property "Datasheet" ""
			(at 0 0 -90)
			(unlocked yes)
			(layer "F.Fab")
			(hide yes)
			(uuid "61261c08-fa1b-4694-b8f4-dd6e44b418e4")
			(effects
				(font
					(size 1.27 1.27)
					(thickness 0.15)
				)
			)
		)
		(property "Description" "Diode"
			(at 0 0 -90)
			(unlocked yes)
			(layer "F.Fab")
			(hide yes)
			(uuid "7e923f9c-51e8-42c7-aaca-2b847fb5e71b")
			(effects
				(font
					(size 1.27 1.27)
					(thickness 0.15)
				)
			)
		)
		(property "Sim.Device" "D"
			(at 0 0 -90)
			(unlocked yes)
			(layer "F.Fab")
			(hide yes)
			(uuid "cd499056-6a21-4f6c-88d4-dafd1ff7aa2b")
			(effects
				(font
					(size 1 1)
					(thickness 0.15)
				)
			)
		)
		(property "Sim.Pins" "1=K 2=A"
			(at 0 0 -90)
			(unlocked yes)
			(layer "F.Fab")
			(hide yes)
			(uuid "a36001b3-b163-40fd-b285-06e0a3ae90d9")
			(effects
				(font
					(size 1 1)
					(thickness 0.15)
				)
			)
		)
		(property ki_fp_filters "TO-???* *_Diode_* *SingleDiode* D_*")
		(path "/6a5b9058-965b-4300-ab18-c83ab10167e0")
		(sheetname "Root")
		(sheetfile "non_rectangular_smd.kicad_sch")
		(attr smd)
		(fp_line
			(start -2.46 1.585)
			(end 1.6 1.585)
			(stroke
				(width 0.12)
				(type solid)
			)
			(layer "F.SilkS")
			(uuid "d605fc04-adf9-478c-a780-fb3f6036962c")
		)
		(fp_line
			(start -2.46 -1.585)
			(end -2.46 1.585)
			(stroke
				(width 0.12)
				(type solid)
			)
			(layer "F.SilkS")
			(uuid "37fcd311-521a-4d5d-9a20-fdc94c52a7ed")
		)
		(fp_line
			(start 1.6 -1.585)
			(end -2.46 -1.585)
			(stroke
				(width 0.12)
				(type solid)
			)
			(layer "F.SilkS")
			(uuid "6c9484a7-0db4-4d7a-9927-9cc77acf2701")
		)
		(fp_line
			(start -2.45 1.58)
			(end -2.45 -1.58)
			(stroke
				(width 0.05)
				(type solid)
			)
			(layer "F.CrtYd")
			(uuid "6f179efa-ec2e-4be1-b193-fc9907c5d344")
		)
		(fp_line
			(start 2.45 1.58)
			(end -2.45 1.58)
			(stroke
				(width 0.05)
				(type solid)
			)
			(layer "F.CrtYd")
			(uuid "32849bd5-3c56-4843-918c-3e29abecb5be")
		)
		(fp_line
			(start -2.45 -1.58)
			(end 2.45 -1.58)
			(stroke
				(width 0.05)
				(type solid)
			)
			(layer "F.CrtYd")
			(uuid "64f9d256-2535-4e73-b17f-4b3f123b364b")
		)
		(fp_line
			(start 2.45 -1.58)
			(end 2.45 1.58)
			(stroke
				(width 0.05)
				(type solid)
			)
			(layer "F.CrtYd")
			(uuid "d0722279-e85b-45b8-9ec0-a5a9d41ed167")
		)
		(fp_line
			(start -1.6 1.25)
			(end 1.6 1.25)
			(stroke
				(width 0.1)
				(type solid)
			)
			(layer "F.Fab")
			(uuid "89e7aec0-5dc7-4cb6-b6dc-1c03c971e3bf")
		)
		(fp_line
			(start 1.6 1.25)
			(end 1.6 -1.25)
			(stroke
				(width 0.1)
				(type solid)
			)
			(layer "F.Fab")
			(uuid "b03e80ff-d13a-44c9-9565-897e2efa9b75")
		)
		(fp_line
			(start -1.6 -0.625)
			(end -1.6 1.25)
			(stroke
				(width 0.1)
				(type solid)
			)
			(layer "F.Fab")
			(uuid "44e8d905-5299-470b-b6df-106da15035ec")
		)
		(fp_line
			(start -0.975 -1.25)
			(end -1.6 -0.625)
			(stroke
				(width 0.1)
				(type solid)
			)
			(layer "F.Fab")
			(uuid "938eb011-97a7-4294-a05f-50d9a3f08361")
		)
		(fp_line
			(start 1.6 -1.25)
			(end -0.975 -1.25)
			(stroke
				(width 0.1)
				(type solid)
			)
			(layer "F.Fab")
			(uuid "a3cb52ea-6a12-4570-b267-6ba04ff655ee")
		)
		(fp_text user "${REFERENCE}"
			(at 0 0 90)
			(layer "F.Fab")
			(uuid "ecf96d0d-594d-4c9a-aaab-c39048bc7bae")
			(effects
				(font
					(size 0.8 0.8)
					(thickness 0.12)
				)
			)
		)
		(pad "1" smd roundrect
			(at -1.4875 0 270)
			(size 1.425 2.65)
			(layers "F.Cu" "F.Paste" "F.Mask")
			(roundrect_rratio 0.175439)
			(net 3 "Net-(D1-K)")
			(pinfunction "K")
			(pintype "passive")
			(uuid "5de7f141-93b2-4146-b568-f0797168e55e")
		)
		(pad "2" smd roundrect
			(at 1.4875 0 270)
			(size 1.425 2.65)
			(layers "F.Cu" "F.Paste" "F.Mask")
			(roundrect_rratio 0.175439)
			(net 2 "GND")
			(pinfunction "A")
			(pintype "passive")
			(uuid "1dad74dc-06b7-4879-b456-d6b6114dee26")
		)
		(model "${KICAD8_3DMODEL_DIR}/Diode_SMD.3dshapes/D_1210_3225Metric.wrl"
			(offset
				(xyz 0 0 0)
			)
			(scale
				(xyz 1 1 1)
			)
			(rotate
				(xyz 0 0 0)
			)
		)
	)
	(footprint "Inductor_SMD:L_Coilcraft_LPS5030"
		(layer "F.Cu")
		(uuid "8e912274-fa11-4590-b935-893c0370d385")
		(at 138.5 103.2275 90)
		(descr "Shielded Power Inductor SMD, Coilcraft LPS5030, https://www.coilcraft.com/pdfs/lps5030.pdf, StepUp generated footprint")
		(tags "inductor")
		(property "Reference" "L1"
			(at 0 -3.7 90)
			(layer "F.SilkS")
			(uuid "761d2f6b-78a6-402b-9d60-4237de54887a")
			(effects
				(font
					(size 1 1)
					(thickness 0.15)
				)
			)
		)
		(property "Value" "L"
			(at 0 3.8 90)
			(layer "F.Fab")
			(uuid "73138700-8538-436e-99b0-5b5e2a0e67fe")
			(effects
				(font
					(size 0.8 0.8)
					(thickness 0.12)
				)
			)
		)
		(property "Footprint" "Inductor_SMD:L_Coilcraft_LPS5030"
			(at 0 0 90)
			(unlocked yes)
			(layer "F.Fab")
			(hide yes)
			(uuid "fd00a78e-9542-4709-a3e1-daa2cac8a648")
			(effects
				(font
					(size 1.27 1.27)
					(thickness 0.15)
				)
			)
		)
		(property "Datasheet" ""
			(at 0 0 90)
			(unlocked yes)
			(layer "F.Fab")
			(hide yes)
			(uuid "16134c4f-4e7c-4801-bfa0-a987c3ed5444")
			(effects
				(font
					(size 1.27 1.27)
					(thickness 0.15)
				)
			)
		)
		(property "Description" "Inductor"
			(at 0 0 90)
			(unlocked yes)
			(layer "F.Fab")
			(hide yes)
			(uuid "2ec91a25-a796-486f-ae1a-8f93c945f170")
			(effects
				(font
					(size 1.27 1.27)
					(thickness 0.15)
				)
			)
		)
		(property ki_fp_filters "Choke_* *Coil* Inductor_* L_*")
		(path "/b8a75fee-84e1-4fc6-8518-94d9ac6bba52")
		(sheetname "Root")
		(sheetfile "non_rectangular_smd.kicad_sch")
		(attr smd)
		(fp_line
			(start -0.5 -2.51)
			(end 0.5 -2.51)
			(stroke
				(width 0.12)
				(type solid)
			)
			(layer "F.SilkS")
			(uuid "2c9a051c-1d58-4c34-ac61-6be5ed7466d3")
		)
		(fp_line
			(start -0.5 2.51)
			(end 0.5 2.51)
			(stroke
				(width 0.12)
				(type solid)
			)
			(layer "F.SilkS")
			(uuid "f9df7644-cb2b-4560-8c98-f953e68fe076")
		)
		(fp_line
			(start 1.8 -3.01)
			(end 3.01 -1.8)
			(stroke
				(width 0.05)
				(type solid)
			)
			(layer "F.CrtYd")
			(uuid "2aa4e9ad-7c4a-4332-9d39-10607ed7ef01")
		)
		(fp_line
			(start -1.8 -3.01)
			(end 1.8 -3.01)
			(stroke
				(width 0.05)
				(type solid)
			)
			(layer "F.CrtYd")
			(uuid "fbaef5dc-f1c8-445b-ae9a-69f915731708")
		)
		(fp_line
			(start 3.01 -1.8)
			(end 3.01 1.8)
			(stroke
				(width 0.05)
				(type solid)
			)
			(layer "F.CrtYd")
			(uuid "20cf7464-632e-44c0-a243-83176d8dfb60")
		)
		(fp_line
			(start -3.01 -1.8)
			(end -1.8 -3.01)
			(stroke
				(width 0.05)
				(type solid)
			)
			(layer "F.CrtYd")
			(uuid "a1548d8c-5de2-4f99-8c39-983c3514c71d")
		)
		(fp_line
			(start 3.01 1.8)
			(end 1.8 3.01)
			(stroke
				(width 0.05)
				(type solid)
			)
			(layer "F.CrtYd")
			(uuid "9b82faae-0fa0-4102-b5cf-40683c2bfb11")
		)
		(fp_line
			(start -3.01 1.8)
			(end -3.01 -1.8)
			(stroke
				(width 0.05)
				(type solid)
			)
			(layer "F.CrtYd")
			(uuid "0e96d241-3489-4d14-9d97-c4322070c036")
		)
		(fp_line
			(start 1.8 3.01)
			(end -1.8 3.01)
			(stroke
				(width 0.05)
				(type solid)
			)
			(layer "F.CrtYd")
			(uuid "af5628af-1d40-48f8-9373-5f7338822fb0")
		)
		(fp_line
			(start -1.8 3.01)
			(end -3.01 1.8)
			(stroke
				(width 0.05)
				(type solid)
			)
			(layer "F.CrtYd")
			(uuid "fa3bc9c3-a82c-45c0-b254-a6bb27e1188b")
		)
		(fp_line
			(start 1.4 -2.4)
			(end 2.4 -1.4)
			(stroke
				(width 0.1)
				(type solid)
			)
			(layer "F.Fab")
			(uuid "102096d9-f78e-4b11-924f-c318bba2b1b8")
		)
		(fp_line
			(start -1.4 -2.4)
			(end 1.4 -2.4)
			(stroke
				(width 0.1)
				(type solid)
			)
			(layer "F.Fab")
			(uuid "781b32f7-fe82-4736-b812-f49f0d756b59")
		)
		(fp_line
			(start 2.4 -1.4)
			(end 2.4 1.4)
			(stroke
				(width 0.1)
				(type solid)
			)
			(layer "F.Fab")
			(uuid "848cb2e8-9348-47d0-bc88-af6b61fb49ae")
		)
		(fp_line
			(start -2.4 -1.4)
			(end -1.4 -2.4)
			(stroke
				(width 0.1)
				(type solid)
			)
			(layer "F.Fab")
			(uuid "d595b4bb-9158-44f7-9cff-e9c4adc67d28")
		)
		(fp_line
			(start 2.4 1.4)
			(end 1.4 2.4)
			(stroke
				(width 0.1)
				(type solid)
			)
			(layer "F.Fab")
			(uuid "f32f54cc-d3c2-4ffe-9e4d-12bbdccbb032")
		)
		(fp_line
			(start -2.4 1.4)
			(end -2.4 -1.4)
			(stroke
				(width 0.1)
				(type solid)
			)
			(layer "F.Fab")
			(uuid "384bedef-70fb-4e55-960d-fa7ff6e799b7")
		)
		(fp_line
			(start -2.4 1.4)
			(end -1.4 2.4)
			(stroke
				(width 0.1)
				(type solid)
			)
			(layer "F.Fab")
			(uuid "84c6cd9c-d9b2-42ba-bf53-e70e71bce669")
		)
		(fp_line
			(start 1.4 2.4)
			(end -1.4 2.4)
			(stroke
				(width 0.1)
				(type solid)
			)
			(layer "F.Fab")
			(uuid "92514bcd-6bbc-46ff-942e-032ad08066d5")
		)
		(fp_text user "${REFERENCE}"
			(at 0 0 90)
			(layer "F.Fab")
			(uuid "7d4586d1-f272-451e-a6c1-ceba6278eb83")
			(effects
				(font
					(size 1 1)
					(thickness 0.15)
				)
			)
		)
		(pad "1" smd custom
			(at -2.2275 0 90)
			(size 1.055 3.4)
			(layers "F.Cu" "F.Paste" "F.Mask")
			(net 3 "Net-(D1-K)")
			(pinfunction "1")
			(pintype "passive")
			(zone_connect 2)
			(options
				(clearance outline)
				(anchor rect)
			)
			(primitives
				(gr_poly
					(pts
						(xy 1.4675 -1.7) (xy 0.5275 -0.8445) (xy 0.5275 0.8445) (xy 1.4675 1.7) (xy 1.4675 2.755) (xy 0.5275 2.755)
						(xy -0.5275 1.7) (xy -0.5275 -1.7) (xy 0.5275 -2.755) (xy 1.4675 -2.755)
					)
					(width 0)
					(fill yes)
				)
			)
			(uuid "5d25354d-ebda-4c8c-9d29-6742a46defa6")
		)
		(pad "2" smd custom
			(at 2.2275 0 90)
			(size 1.055 3.4)
			(layers "F.Cu" "F.Paste" "F.Mask")
			(net 1 "+3.3V")
			(pinfunction "2")
			(pintype "passive")
			(zone_connect 2)
			(options
				(clearance outline)
				(anchor rect)
			)
			(primitives
				(gr_poly
					(pts
						(xy 0.5275 -1.7) (xy 0.5275 1.7) (xy -0.5275 2.755) (xy -1.4675 2.755) (xy -1.4675 1.7) (xy -0.5275 0.8445)
						(xy -0.5275 -0.8445) (xy -1.4675 -1.7) (xy -1.4675 -2.755) (xy -0.5275 -2.755)
					)
					(width 0)
					(fill yes)
				)
			)
			(uuid "65358e7a-f94a-47d4-863e-5cd0298d277b")
		)
		(model "${KICAD8_3DMODEL_DIR}/Inductor_SMD.3dshapes/L_Coilcraft_LPS5030.wrl"
			(offset
				(xyz 0 0 0)
			)
			(scale
				(xyz 1 1 1)
			)
			(rotate
				(xyz 0 0 0)
			)
		)
	)
	(footprint "Resistor_SMD:R_1218_3246Metric_Pad1.22x4.75mm_HandSolder"
		(layer "F.Cu")
		(uuid "b57d43d7-15c6-423a-9a70-42b5fcdca9eb")
		(at 144 109.9375 -90)
		(descr "Resistor SMD 1218 (3246 Metric), square (rectangular) end terminal, IPC_7351 nominal with elongated pad for handsoldering. (Body size source: https://www.vishay.com/docs/20035/dcrcwe3.pdf), generated with kicad-footprint-generator")
		(tags "resistor handsolder")
		(property "Reference" "R1"
			(at 0 -3.32 90)
			(layer "F.SilkS")
			(uuid "d53ede34-cd9d-439d-93c0-c3acabf2ec51")
			(effects
				(font
					(size 1 1)
					(thickness 0.15)
				)
			)
		)
		(property "Value" "R"
			(at 0 3.32 90)
			(layer "F.Fab")
			(uuid "8d07bb25-22eb-416a-bdb5-925ec393cdaa")
			(effects
				(font
					(size 1 1)
					(thickness 0.15)
				)
			)
		)
		(property "Footprint" "Resistor_SMD:R_1218_3246Metric_Pad1.22x4.75mm_HandSolder"
			(at 0 0 -90)
			(unlocked yes)
			(layer "F.Fab")
			(hide yes)
			(uuid "5ca583da-699b-4a12-97e1-a64d39f78269")
			(effects
				(font
					(size 1.27 1.27)
					(thickness 0.15)
				)
			)
		)
		(property "Datasheet" ""
			(at 0 0 -90)
			(unlocked yes)
			(layer "F.Fab")
			(hide yes)
			(uuid "e16e878b-e503-4cbb-8b79-062cbf3664d9")
			(effects
				(font
					(size 1.27 1.27)
					(thickness 0.15)
				)
			)
		)
		(property "Description" "Resistor"
			(at 0 0 -90)
			(unlocked yes)
			(layer "F.Fab")
			(hide yes)
			(uuid "2270995f-69f8-4012-86e8-dda3d58a8732")
			(effects
				(font
					(size 1.27 1.27)
					(thickness 0.15)
				)
			)
		)
		(property ki_fp_filters "R_*")
		(path "/3a69f2ff-5140-4fcb-b924-99e572508a97")
		(sheetname "Root")
		(sheetfile "non_rectangular_smd.kicad_sch")
		(attr smd)
		(fp_line
			(start -0.777064 2.41)
			(end 0.777064 2.41)
			(stroke
				(width 0.12)
				(type solid)
			)
			(layer "F.SilkS")
			(uuid "79192374-5104-482a-a931-41189c732f18")
		)
		(fp_line
			(start -0.777064 -2.41)
			(end 0.777064 -2.41)
			(stroke
				(width 0.12)
				(type solid)
			)
			(layer "F.SilkS")
			(uuid "8f40e3e1-a2cf-45ae-ac91-e1b6685e7da5")
		)
		(fp_line
			(start -2.42 2.62)
			(end -2.42 -2.62)
			(stroke
				(width 0.05)
				(type solid)
			)
			(layer "F.CrtYd")
			(uuid "b87ae740-f80c-4bcb-b748-08c9f3910bd2")
		)
		(fp_line
			(start 2.42 2.62)
			(end -2.42 2.62)
			(stroke
				(width 0.05)
				(type solid)
			)
			(layer "F.CrtYd")
			(uuid "f402169e-2f94-4da7-bf97-007779e7ae06")
		)
		(fp_line
			(start -2.42 -2.62)
			(end 2.42 -2.62)
			(stroke
				(width 0.05)
				(type solid)
			)
			(layer "F.CrtYd")
			(uuid "8d877330-ccd4-457e-9cb3-d17633972612")
		)
		(fp_line
			(start 2.42 -2.62)
			(end 2.42 2.62)
			(stroke
				(width 0.05)
				(type solid)
			)
			(layer "F.CrtYd")
			(uuid "c241b37e-b21c-4155-83fb-f9de66974a45")
		)
		(fp_line
			(start -1.6 2.3)
			(end -1.6 -2.3)
			(stroke
				(width 0.1)
				(type solid)
			)
			(layer "F.Fab")
			(uuid "c0e8ce23-1470-4669-a212-7b176078c3c3")
		)
		(fp_line
			(start 1.6 2.3)
			(end -1.6 2.3)
			(stroke
				(width 0.1)
				(type solid)
			)
			(layer "F.Fab")
			(uuid "4052beb5-a1f3-4122-a7aa-2c17986f905b")
		)
		(fp_line
			(start -1.6 -2.3)
			(end 1.6 -2.3)
			(stroke
				(width 0.1)
				(type solid)
			)
			(layer "F.Fab")
			(uuid "a6fcd8ba-931a-4869-8649-b8cf2ec6a600")
		)
		(fp_line
			(start 1.6 -2.3)
			(end 1.6 2.3)
			(stroke
				(width 0.1)
				(type solid)
			)
			(layer "F.Fab")
			(uuid "127cc61b-007d-4b16-a708-db80e28d38bc")
		)
		(fp_text user "${REFERENCE}"
			(at 0 0 90)
			(layer "F.Fab")
			(uuid "29d9b8f4-8e20-4b0d-bc08-80f84356ac4b")
			(effects
				(font
					(size 0.8 0.8)
					(thickness 0.12)
				)
			)
		)
		(pad "1" smd roundrect
			(at -1.5625 0 270)
			(size 1.225 4.75)
			(layers "F.Cu" "F.Paste" "F.Mask")
			(roundrect_rratio 0.204082)
			(net 1 "+3.3V")
			(pintype "passive")
			(uuid "52d6d7ff-46ca-4ca1-aaf1-fef799abcbd1")
		)
		(pad "2" smd roundrect
			(at 1.5625 0 270)
			(size 1.225 4.75)
			(layers "F.Cu" "F.Paste" "F.Mask")
			(roundrect_rratio 0.204082)
			(net 2 "GND")
			(pintype "passive")
			(uuid "b77eb889-0439-415b-8fda-51204bfda9e5")
		)
		(model "${KICAD8_3DMODEL_DIR}/Resistor_SMD.3dshapes/R_1218_3246Metric.wrl"
			(offset
				(xyz 0 0 0)
			)
			(scale
				(xyz 1 1 1)
			)
			(rotate
				(xyz 0 0 0)
			)
		)
	)
	(gr_rect
		(start 127.5 97)
		(end 152 114)
		(stroke
			(width 0.05)
			(type default)
		)
		(fill none)
		(layer "Edge.Cuts")
		(uuid "e91f019b-5b8f-47d8-ba05-a6726a0b158c")
	)
)
