(kicad_pcb
	(version 20240108)
	(generator "pcbnew")
	(generator_version "8.0")
	(general
		(thickness 1.6)
		(legacy_teardrops no)
	)
	(paper "A4")
	(layers
		(0 "F.Cu" signal)
		(31 "B.Cu" signal)
		(32 "B.Adhes" user "B.Adhesive")
		(33 "F.Adhes" user "F.Adhesive")
		(34 "B.Paste" user)
		(35 "F.Paste" user)
		(36 "B.SilkS" user "B.Silkscreen")
		(37 "F.SilkS" user "F.Silkscreen")
		(38 "B.Mask" user)
		(39 "F.Mask" user)
		(40 "Dwgs.User" user "User.Drawings")
		(41 "Cmts.User" user "User.Comments")
		(42 "Eco1.User" user "User.Eco1")
		(43 "Eco2.User" user "User.Eco2")
		(44 "Edge.Cuts" user)
		(45 "Margin" user)
		(46 "B.CrtYd" user "B.Courtyard")
		(47 "F.CrtYd" user "F.Courtyard")
		(48 "B.Fab" user)
		(49 "F.Fab" user)
		(50 "User.1" user)
		(51 "User.2" user)
		(52 "User.3" user)
		(53 "User.4" user)
		(54 "User.5" user)
		(55 "User.6" user)
		(56 "User.7" user)
		(57 "User.8" user)
		(58 "User.9" user)
	)
	(setup
		(pad_to_mask_clearance 0)
		(allow_soldermask_bridges_in_footprints no)
		(pcbplotparams
			(layerselection 0x00010fc_ffffffff)
			(plot_on_all_layers_selection 0x0000000_00000000)
			(disableapertmacros no)
			(usegerberextensions no)
			(usegerberattributes yes)
			(usegerberadvancedattributes yes)
			(creategerberjobfile yes)
			(dashed_line_dash_ratio 12.000000)
			(dashed_line_gap_ratio 3.000000)
			(svgprecision 4)
			(plotframeref no)
			(viasonmask no)
			(mode 1)
			(useauxorigin no)
			(hpglpennumber 1)
			(hpglpenspeed 20)
			(hpglpendiameter 15.000000)
			(pdf_front_fp_property_popups yes)
			(pdf_back_fp_property_popups yes)
			(dxfpolygonmode yes)
			(dxfimperialunits yes)
			(dxfusepcbnewfont yes)
			(psnegative no)
			(psa4output no)
			(plotreference yes)
			(plotvalue yes)
			(plotfptext yes)
			(plotinvisibletext no)
			(sketchpadsonfab no)
			(subtractmaskfromsilk no)
			(outputformat 1)
			(mirror no)
			(drillshape 1)
			(scaleselection 1)
			(outputdirectory "")
		)
	)
	(net 0 "")
	(net 1 "Net-(J1-Pin_4)")
	(net 2 "Net-(J1-Pin_1)")
	(net 3 "GND")
	(net 4 "Net-(J1-Pin_3)")
	(net 5 "Net-(J1-Pin_2)")
	(net 6 "DD")
	(footprint "Connector_JST:JST_EH_B5B-EH-A_1x05_P2.50mm_Vertical"
		(layer "F.Cu")
		(uuid "7fd44652-0a91-4cb8-b0f8-a519c9b69d8e")
		(at 150 75 180)
		(descr "JST EH series connector, B5B-EH-A (http://www.jst-mfg.com/product/pdf/eng/eEH.pdf), generated with kicad-footprint-generator")
		(tags "connector JST EH vertical")
		(property "Reference" "J2"
			(at 5 -2.8 180)
			(layer "F.SilkS")
			(uuid "559428e2-0964-4138-b41d-c031052413c3")
			(effects
				(font
					(size 1 1)
					(thickness 0.15)
				)
			)
		)
		(property "Value" "Conn_01x05"
			(at 5 3.4 180)
			(layer "F.Fab")
			(uuid "0afa3c71-4155-47c2-9805-e7cefc7e5aee")
			(effects
				(font
					(size 1 1)
					(thickness 0.15)
				)
			)
		)
		(property "Footprint" "Connector_JST:JST_EH_B5B-EH-A_1x05_P2.50mm_Vertical"
			(at 0 0 180)
			(unlocked yes)
			(layer "F.Fab")
			(hide yes)
			(uuid "14b899fe-f217-4ce3-b4d0-d63118b37634")
			(effects
				(font
					(size 1.27 1.27)
				)
			)
		)
		(property "Datasheet" ""
			(at 0 0 180)
			(unlocked yes)
			(layer "F.Fab")
			(hide yes)
			(uuid "c5f76ded-f05a-4aad-a085-120c6a33546b")
			(effects
				(font
					(size 1.27 1.27)
				)
			)
		)
		(property "Description" "Generic connector, single row, 01x05, script generated (kicad-library-utils/schlib/autogen/connector/)"
			(at 0 0 180)
			(unlocked yes)
			(layer "F.Fab")
			(hide yes)
			(uuid "06ac69a2-7b08-40ef-aa7e-00b89a4d4456")
			(effects
				(font
					(size 1.27 1.27)
				)
			)
		)
		(property ki_fp_filters "Connector*:*_1x??_*")
		(path "/7218f180-0012-4984-a886-e3acbf5cedcc")
		(sheetname "Root")
		(sheetfile "short_squeeze_through_under_bends.kicad_sch")
		(attr through_hole)
		(fp_line
			(start 12.61 2.31)
			(end 12.61 -1.71)
			(stroke
				(width 0.12)
				(type solid)
			)
			(layer "F.SilkS")
			(uuid "11c4c113-2ee7-4d0c-a526-f202b7f50979")
		)
		(fp_line
			(start 12.61 0.81)
			(end 11.61 0.81)
			(stroke
				(width 0.12)
				(type solid)
			)
			(layer "F.SilkS")
			(uuid "ee0bf4e6-2294-4bd7-8a54-c1c41243f377")
		)
		(fp_line
			(start 12.61 -1.71)
			(end -2.61 -1.71)
			(stroke
				(width 0.12)
				(type solid)
			)
			(layer "F.SilkS")
			(uuid "55d86e8b-d558-43ec-af82-55c70d9001a0")
		)
		(fp_line
			(start 12.11 0)
			(end 12.61 0)
			(stroke
				(width 0.12)
				(type solid)
			)
			(layer "F.SilkS")
			(uuid "0e9331e5-70b9-40a6-99e3-adfd9cb963ae")
		)
		(fp_line
			(start 12.11 -1.21)
			(end 12.11 0)
			(stroke
				(width 0.12)
				(type solid)
			)
			(layer "F.SilkS")
			(uuid "2f9604bf-ecfa-4f20-a05d-726b9a68116b")
		)
		(fp_line
			(start 11.61 0.81)
			(end 11.61 2.31)
			(stroke
				(width 0.12)
				(type solid)
			)
			(layer "F.SilkS")
			(uuid "31fd5bde-5336-454f-91a6-27c583eab197")
		)
		(fp_line
			(start -1.61 0.81)
			(end -1.61 2.31)
			(stroke
				(width 0.12)
				(type solid)
			)
			(layer "F.SilkS")
			(uuid "8478ac62-7678-45ae-9c58-3ca06a0d2b52")
		)
		(fp_line
			(start -2.11 0)
			(end -2.11 -1.21)
			(stroke
				(width 0.12)
				(type solid)
			)
			(layer "F.SilkS")
			(uuid "fdbc30d5-f535-4880-a55e-fa3731a82fef")
		)
		(fp_line
			(start -2.11 -1.21)
			(end 12.11 -1.21)
			(stroke
				(width 0.12)
				(type solid)
			)
			(layer "F.SilkS")
			(uuid "d29a7f27-e0ec-4729-9f1c-fe0809df94ee")
		)
		(fp_line
			(start -2.61 2.31)
			(end 12.61 2.31)
			(stroke
				(width 0.12)
				(type solid)
			)
			(layer "F.SilkS")
			(uuid "a0467873-7ea0-467d-8d3f-bf1012583800")
		)
		(fp_line
			(start -2.61 0.81)
			(end -1.61 0.81)
			(stroke
				(width 0.12)
				(type solid)
			)
			(layer "F.SilkS")
			(uuid "95f215d6-b906-480e-a7a6-5b3f27244ba5")
		)
		(fp_line
			(start -2.61 0)
			(end -2.11 0)
			(stroke
				(width 0.12)
				(type solid)
			)
			(layer "F.SilkS")
			(uuid "c2f6e5d7-bb6e-4746-a5d4-3dd091c49667")
		)
		(fp_line
			(start -2.61 -1.71)
			(end -2.61 2.31)
			(stroke
				(width 0.12)
				(type solid)
			)
			(layer "F.SilkS")
			(uuid "803169b6-33f0-48f2-874d-3c5dc2fa03e6")
		)
		(fp_line
			(start -2.91 2.61)
			(end -0.41 2.61)
			(stroke
				(width 0.12)
				(type solid)
			)
			(layer "F.SilkS")
			(uuid "ab375206-0e9d-429d-a48e-50be92871f40")
		)
		(fp_line
			(start -2.91 0.11)
			(end -2.91 2.61)
			(stroke
				(width 0.12)
				(type solid)
			)
			(layer "F.SilkS")
			(uuid "c5f47e28-94d3-46cd-a5d0-590f2d9f0131")
		)
		(fp_line
			(start 13 2.7)
			(end 13 -2.1)
			(stroke
				(width 0.05)
				(type solid)
			)
			(layer "F.CrtYd")
			(uuid "f23f4fc5-aeb7-4ee8-9ad2-641a06d24504")
		)
		(fp_line
			(start 13 -2.1)
			(end -3 -2.1)
			(stroke
				(width 0.05)
				(type solid)
			)
			(layer "F.CrtYd")
			(uuid "8dc4ee79-af8d-42dc-9478-68cc34b6f87f")
		)
		(fp_line
			(start -3 2.7)
			(end 13 2.7)
			(stroke
				(width 0.05)
				(type solid)
			)
			(layer "F.CrtYd")
			(uuid "dd9326c9-f66d-45af-96a4-33f707565c05")
		)
		(fp_line
			(start -3 -2.1)
			(end -3 2.7)
			(stroke
				(width 0.05)
				(type solid)
			)
			(layer "F.CrtYd")
			(uuid "30440b72-a237-43e3-8c0b-a91e75af7929")
		)
		(fp_line
			(start 12.5 2.2)
			(end 12.5 -1.6)
			(stroke
				(width 0.1)
				(type solid)
			)
			(layer "F.Fab")
			(uuid "97140258-de6b-477f-a4b0-5f8e3d69fd7c")
		)
		(fp_line
			(start 12.5 -1.6)
			(end -2.5 -1.6)
			(stroke
				(width 0.1)
				(type solid)
			)
			(layer "F.Fab")
			(uuid "086dc89a-1e31-4ee6-ad98-284ac56bf45b")
		)
		(fp_line
			(start -2.5 2.2)
			(end 12.5 2.2)
			(stroke
				(width 0.1)
				(type solid)
			)
			(layer "F.Fab")
			(uuid "d5a1ffe7-33c9-4d99-abc5-974ec2a2bd34")
		)
		(fp_line
			(start -2.5 -1.6)
			(end -2.5 2.2)
			(stroke
				(width 0.1)
				(type solid)
			)
			(layer "F.Fab")
			(uuid "fc0450aa-5a31-4a34-aa4c-d9921f74042d")
		)
		(fp_line
			(start -2.91 2.61)
			(end -0.41 2.61)
			(stroke
				(width 0.1)
				(type solid)
			)
			(layer "F.Fab")
			(uuid "14869c67-4283-4aff-ad42-7bdb1f2cb2e1")
		)
		(fp_line
			(start -2.91 0.11)
			(end -2.91 2.61)
			(stroke
				(width 0.1)
				(type solid)
			)
			(layer "F.Fab")
			(uuid "6a7923b6-be43-4548-94b8-011d7b2910c9")
		)
		(fp_text user "${REFERENCE}"
			(at 5 1.5 180)
			(layer "F.Fab")
			(uuid "033b0bef-5e9d-4808-aa56-bf5c31a8ab15")
			(effects
				(font
					(size 1 1)
					(thickness 0.15)
				)
			)
		)
		(pad "1" thru_hole roundrect
			(at 0 0 180)
			(size 1.7 1.95)
			(drill 0.95)
			(layers "*.Cu" "*.Mask")
			(remove_unused_layers no)
			(roundrect_rratio 0.147059)
			(net 2 "Net-(J1-Pin_1)")
			(pinfunction "Pin_1")
			(pintype "passive")
			(uuid "8e3b4dcf-1a75-4b1f-8f36-f0dd985a0efe")
		)
		(pad "2" thru_hole oval
			(at 2.5 0 180)
			(size 1.7 1.95)
			(drill 0.95)
			(layers "*.Cu" "*.Mask")
			(remove_unused_layers no)
			(net 5 "Net-(J1-Pin_2)")
			(pinfunction "Pin_2")
			(pintype "passive")
			(uuid "c1dc1932-ee4b-42d5-b7e3-6dfbc8795660")
		)
		(pad "3" thru_hole oval
			(at 5 0 180)
			(size 1.7 1.95)
			(drill 0.95)
			(layers "*.Cu" "*.Mask")
			(remove_unused_layers no)
			(net 4 "Net-(J1-Pin_3)")
			(pinfunction "Pin_3")
			(pintype "passive")
			(uuid "8c27d24b-f263-4a14-af7e-fef31fe7d55c")
		)
		(pad "4" thru_hole oval
			(at 7.5 0 180)
			(size 1.7 1.95)
			(drill 0.95)
			(layers "*.Cu" "*.Mask")
			(remove_unused_layers no)
			(net 1 "Net-(J1-Pin_4)")
			(pinfunction "Pin_4")
			(pintype "passive")
			(uuid "8d466ec5-7291-40b1-9f59-661298e9e7df")
		)
		(pad "5" thru_hole oval
			(at 10 0 180)
			(size 1.7 1.95)
			(drill 0.95)
			(layers "*.Cu" "*.Mask")
			(remove_unused_layers no)
			(net 3 "GND")
			(pinfunction "Pin_5")
			(pintype "passive")
			(uuid "e44f253d-9fec-4794-bb54-0f254373161a")
		)
		(model "${KICAD8_3DMODEL_DIR}/Connector_JST.3dshapes/JST_EH_B5B-EH-A_1x05_P2.50mm_Vertical.wrl"
			(offset
				(xyz 0 0 0)
			)
			(scale
				(xyz 1 1 1)
			)
			(rotate
				(xyz 0 0 0)
			)
		)
	)
	(footprint "Connector_JST:JST_EH_B5B-EH-A_1x05_P2.50mm_Vertical"
		(layer "F.Cu")
		(uuid "e0b11e8a-9a24-4569-be41-d85610d3f616")
		(at 150 125 180)
		(descr "JST EH series connector, B5B-EH-A (http://www.jst-mfg.com/product/pdf/eng/eEH.pdf), generated with kicad-footprint-generator")
		(tags "connector JST EH vertical")
		(property "Reference" "J1"
			(at 5 -2.8 180)
			(layer "F.SilkS")
			(uuid "238d82be-c598-487a-8468-3901300f16b5")
			(effects
				(font
					(size 1 1)
					(thickness 0.15)
				)
			)
		)
		(property "Value" "Conn_01x05"
			(at 5 3.4 180)
			(layer "F.Fab")
			(uuid "b9475497-7c2e-4bf7-b571-8af8699bb6af")
			(effects
				(font
					(size 1 1)
					(thickness 0.15)
				)
			)
		)
		(property "Footprint" "Connector_JST:JST_EH_B5B-EH-A_1x05_P2.50mm_Vertical"
			(at 0 0 180)
			(unlocked yes)
			(layer "F.Fab")
			(hide yes)
			(uuid "119ebe8c-b89a-4f85-a245-101539be12d1")
			(effects
				(font
					(size 1.27 1.27)
				)
			)
		)
		(property "Datasheet" ""
			(at 0 0 180)
			(unlocked yes)
			(layer "F.Fab")
			(hide yes)
			(uuid "0bb19132-5a8e-4fcd-a488-90da3889aefd")
			(effects
				(font
					(size 1.27 1.27)
				)
			)
		)
		(property "Description" "Generic connector, single row, 01x05, script generated (kicad-library-utils/schlib/autogen/connector/)"
			(at 0 0 180)
			(unlocked yes)
			(layer "F.Fab")
			(hide yes)
			(uuid "dedf0243-5f17-4407-858f-cd98e1dab265")
			(effects
				(font
					(size 1.27 1.27)
				)
			)
		)
		(property ki_fp_filters "Connector*:*_1x??_*")
		(path "/f9eceafb-1a23-4dee-8206-72db97bb44c1")
		(sheetname "Root")
		(sheetfile "short_squeeze_through_under_bends.kicad_sch")
		(attr through_hole)
		(fp_line
			(start 12.61 2.31)
			(end 12.61 -1.71)
			(stroke
				(width 0.12)
				(type solid)
			)
			(layer "F.SilkS")
			(uuid "4063b35a-44a3-4df9-a0fc-f0d4688d3153")
		)
		(fp_line
			(start 12.61 0.81)
			(end 11.61 0.81)
			(stroke
				(width 0.12)
				(type solid)
			)
			(layer "F.SilkS")
			(uuid "484a0280-ec2c-4e19-ba76-0049e33ce638")
		)
		(fp_line
			(start 12.61 -1.71)
			(end -2.61 -1.71)
			(stroke
				(width 0.12)
				(type solid)
			)
			(layer "F.SilkS")
			(uuid "8068d158-ea60-492b-be74-685fcf290712")
		)
		(fp_line
			(start 12.11 0)
			(end 12.61 0)
			(stroke
				(width 0.12)
				(type solid)
			)
			(layer "F.SilkS")
			(uuid "d4de14cc-1b01-49e2-b32b-865c4278d119")
		)
		(fp_line
			(start 12.11 -1.21)
			(end 12.11 0)
			(stroke
				(width 0.12)
				(type solid)
			)
			(layer "F.SilkS")
			(uuid "af47f5c7-66d4-425e-925f-76bb4a151262")
		)
		(fp_line
			(start 11.61 0.81)
			(end 11.61 2.31)
			(stroke
				(width 0.12)
				(type solid)
			)
			(layer "F.SilkS")
			(uuid "aaf7d021-594e-4ad1-9014-cb9b1dd6a73d")
		)
		(fp_line
			(start -1.61 0.81)
			(end -1.61 2.31)
			(stroke
				(width 0.12)
				(type solid)
			)
			(layer "F.SilkS")
			(uuid "ca93f066-00b6-44bc-a4dd-c077f94312dd")
		)
		(fp_line
			(start -2.11 0)
			(end -2.11 -1.21)
			(stroke
				(width 0.12)
				(type solid)
			)
			(layer "F.SilkS")
			(uuid "344dae82-dbac-493b-a3f5-17a9ced7a91a")
		)
		(fp_line
			(start -2.11 -1.21)
			(end 12.11 -1.21)
			(stroke
				(width 0.12)
				(type solid)
			)
			(layer "F.SilkS")
			(uuid "cfec2552-2b28-4b85-b385-0488faea2e12")
		)
		(fp_line
			(start -2.61 2.31)
			(end 12.61 2.31)
			(stroke
				(width 0.12)
				(type solid)
			)
			(layer "F.SilkS")
			(uuid "979648e9-feb9-44aa-ba4c-f7dfa006b954")
		)
		(fp_line
			(start -2.61 0.81)
			(end -1.61 0.81)
			(stroke
				(width 0.12)
				(type solid)
			)
			(layer "F.SilkS")
			(uuid "78e7770a-77c6-499a-9046-6f53bf9be781")
		)
		(fp_line
			(start -2.61 0)
			(end -2.11 0)
			(stroke
				(width 0.12)
				(type solid)
			)
			(layer "F.SilkS")
			(uuid "b909ee23-5205-43cb-bfec-f482e32a0ae5")
		)
		(fp_line
			(start -2.61 -1.71)
			(end -2.61 2.31)
			(stroke
				(width 0.12)
				(type solid)
			)
			(layer "F.SilkS")
			(uuid "6a4ace6c-cba5-409c-bac0-326286e34d8d")
		)
		(fp_line
			(start -2.91 2.61)
			(end -0.41 2.61)
			(stroke
				(width 0.12)
				(type solid)
			)
			(layer "F.SilkS")
			(uuid "056fe372-6b63-46df-ac3a-38ebbe05d036")
		)
		(fp_line
			(start -2.91 0.11)
			(end -2.91 2.61)
			(stroke
				(width 0.12)
				(type solid)
			)
			(layer "F.SilkS")
			(uuid "be78184c-add5-4c5b-be58-71edd6d88f12")
		)
		(fp_line
			(start 13 2.7)
			(end 13 -2.1)
			(stroke
				(width 0.05)
				(type solid)
			)
			(layer "F.CrtYd")
			(uuid "68f3fb8c-1856-4c3d-bc49-8dca1e9dfb08")
		)
		(fp_line
			(start 13 -2.1)
			(end -3 -2.1)
			(stroke
				(width 0.05)
				(type solid)
			)
			(layer "F.CrtYd")
			(uuid "d437d157-e186-4a23-ab5c-eb873b8bd7f6")
		)
		(fp_line
			(start -3 2.7)
			(end 13 2.7)
			(stroke
				(width 0.05)
				(type solid)
			)
			(layer "F.CrtYd")
			(uuid "eb1e3701-b75c-4196-bb54-980649049c57")
		)
		(fp_line
			(start -3 -2.1)
			(end -3 2.7)
			(stroke
				(width 0.05)
				(type solid)
			)
			(layer "F.CrtYd")
			(uuid "75d1b9ac-2533-44ae-a588-6f4c4d2b4e68")
		)
		(fp_line
			(start 12.5 2.2)
			(end 12.5 -1.6)
			(stroke
				(width 0.1)
				(type solid)
			)
			(layer "F.Fab")
			(uuid "11eca9d8-8084-464a-a736-349a8bf12644")
		)
		(fp_line
			(start 12.5 -1.6)
			(end -2.5 -1.6)
			(stroke
				(width 0.1)
				(type solid)
			)
			(layer "F.Fab")
			(uuid "b1469ca3-8e2f-47e5-8c06-e5e11a702598")
		)
		(fp_line
			(start -2.5 2.2)
			(end 12.5 2.2)
			(stroke
				(width 0.1)
				(type solid)
			)
			(layer "F.Fab")
			(uuid "7fe89535-2581-4fe6-9a4d-b2168798ff38")
		)
		(fp_line
			(start -2.5 -1.6)
			(end -2.5 2.2)
			(stroke
				(width 0.1)
				(type solid)
			)
			(layer "F.Fab")
			(uuid "bcdde508-52a3-4d8d-9a98-0cdc3412f008")
		)
		(fp_line
			(start -2.91 2.61)
			(end -0.41 2.61)
			(stroke
				(width 0.1)
				(type solid)
			)
			(layer "F.Fab")
			(uuid "bd34a257-abaa-4af4-8adb-e275c6b15108")
		)
		(fp_line
			(start -2.91 0.11)
			(end -2.91 2.61)
			(stroke
				(width 0.1)
				(type solid)
			)
			(layer "F.Fab")
			(uuid "bc586b98-d708-4236-868b-5238980984bc")
		)
		(fp_text user "${REFERENCE}"
			(at 5 1.5 180)
			(layer "F.Fab")
			(uuid "35fdaca8-291d-4541-bc71-a8f463d8ae1e")
			(effects
				(font
					(size 1 1)
					(thickness 0.15)
				)
			)
		)
		(pad "1" thru_hole roundrect
			(at 0 0 180)
			(size 1.7 1.95)
			(drill 0.95)
			(layers "*.Cu" "*.Mask")
			(remove_unused_layers no)
			(roundrect_rratio 0.147059)
			(net 2 "Net-(J1-Pin_1)")
			(pinfunction "Pin_1")
			(pintype "passive")
			(uuid "3546ac79-c060-4961-9320-c66eb346c031")
		)
		(pad "2" thru_hole oval
			(at 2.5 0 180)
			(size 1.7 1.95)
			(drill 0.95)
			(layers "*.Cu" "*.Mask")
			(remove_unused_layers no)
			(net 5 "Net-(J1-Pin_2)")
			(pinfunction "Pin_2")
			(pintype "passive")
			(uuid "e0ced972-7495-452a-aa80-01608e19e1b9")
		)
		(pad "3" thru_hole oval
			(at 5 0 180)
			(size 1.7 1.95)
			(drill 0.95)
			(layers "*.Cu" "*.Mask")
			(remove_unused_layers no)
			(net 4 "Net-(J1-Pin_3)")
			(pinfunction "Pin_3")
			(pintype "passive")
			(uuid "624b60e4-99c1-4261-85ed-b86dd9b42a2d")
		)
		(pad "4" thru_hole oval
			(at 7.5 0 180)
			(size 1.7 1.95)
			(drill 0.95)
			(layers "*.Cu" "*.Mask")
			(remove_unused_layers no)
			(net 1 "Net-(J1-Pin_4)")
			(pinfunction "Pin_4")
			(pintype "passive")
			(uuid "2b5b7f02-bedc-4260-998e-e5a6a2836030")
		)
		(pad "5" thru_hole oval
			(at 10 0 180)
			(size 1.7 1.95)
			(drill 0.95)
			(layers "*.Cu" "*.Mask")
			(remove_unused_layers no)
			(net 3 "GND")
			(pinfunction "Pin_5")
			(pintype "passive")
			(uuid "4ae4473a-3ddb-417f-b1b4-632fe1a4c9e4")
		)
		(model "${KICAD8_3DMODEL_DIR}/Connector_JST.3dshapes/JST_EH_B5B-EH-A_1x05_P2.50mm_Vertical.wrl"
			(offset
				(xyz 0 0 0)
			)
			(scale
				(xyz 1 1 1)
			)
			(rotate
				(xyz 0 0 0)
			)
		)
	)
	(gr_line
		(start 130 100)
		(end 130 135)
		(stroke
			(width 2)
			(type default)
		)
		(layer "F.Cu")
		(net 6)
		(uuid "1243f19a-697c-4061-9c40-f2efa1a30e63")
	)
	(gr_line
		(start 130 100)
		(end 160 100)
		(stroke
			(width 2)
			(type default)
		)
		(layer "F.Cu")
		(net 6)
		(uuid "3a75a6ce-9587-4973-a6da-b1c5c2cbc86a")
	)
	(gr_line
		(start 130 65)
		(end 175 65)
		(stroke
			(width 2)
			(type default)
		)
		(layer "F.Cu")
		(net 6)
		(uuid "5b3c655b-5a65-42ae-9125-b1009b3ece9b")
	)
	(gr_line
		(start 130 135)
		(end 175 135)
		(stroke
			(width 2)
			(type default)
		)
		(layer "F.Cu")
		(net 6)
		(uuid "84ad8ca3-1dac-4909-9641-b466b5723891")
	)
	(gr_line
		(start 175 65)
		(end 175 135)
		(stroke
			(width 2)
			(type default)
		)
		(layer "F.Cu")
		(net 6)
		(uuid "95d3083d-9030-4cf1-b241-f4948f99643d")
	)
	(gr_line
		(start 130 65)
		(end 130 100)
		(stroke
			(width 2)
			(type default)
		)
		(layer "F.Cu")
		(net 6)
		(uuid "b0c876bc-bf0c-432e-b584-2bea6b59e5ce")
	)
	(gr_rect
		(start 125 60)
		(end 180 140)
		(stroke
			(width 0.05)
			(type default)
		)
		(fill none)
		(layer "Edge.Cuts")
		(uuid "3f53eceb-0876-474f-a75f-1ee0d3aa671a")
	)
)
