(kicad_pcb
	(version 20240108)
	(generator "pcbnew")
	(generator_version "8.0")
	(general
		(thickness 1.6)
		(legacy_teardrops no)
	)
	(paper "A4")
	(layers
		(0 "F.Cu" signal)
		(31 "B.Cu" signal)
		(32 "B.Adhes" user "B.Adhesive")
		(33 "F.Adhes" user "F.Adhesive")
		(34 "B.Paste" user)
		(35 "F.Paste" user)
		(36 "B.SilkS" user "B.Silkscreen")
		(37 "F.SilkS" user "F.Silkscreen")
		(38 "B.Mask" user)
		(39 "F.Mask" user)
		(40 "Dwgs.User" user "User.Drawings")
		(41 "Cmts.User" user "User.Comments")
		(42 "Eco1.User" user "User.Eco1")
		(43 "Eco2.User" user "User.Eco2")
		(44 "Edge.Cuts" user)
		(45 "Margin" user)
		(46 "B.CrtYd" user "B.Courtyard")
		(47 "F.CrtYd" user "F.Courtyard")
		(48 "B.Fab" user)
		(49 "F.Fab" user)
		(50 "User.1" user)
		(51 "User.2" user)
		(52 "User.3" user)
		(53 "User.4" user)
		(54 "User.5" user)
		(55 "User.6" user)
		(56 "User.7" user)
		(57 "User.8" user)
		(58 "User.9" user)
	)
	(setup
		(pad_to_mask_clearance 0)
		(allow_soldermask_bridges_in_footprints no)
		(pcbplotparams
			(layerselection 0x00010fc_ffffffff)
			(plot_on_all_layers_selection 0x0000000_00000000)
			(disableapertmacros no)
			(usegerberextensions no)
			(usegerberattributes yes)
			(usegerberadvancedattributes yes)
			(creategerberjobfile yes)
			(dashed_line_dash_ratio 12.000000)
			(dashed_line_gap_ratio 3.000000)
			(svgprecision 4)
			(plotframeref no)
			(viasonmask no)
			(mode 1)
			(useauxorigin no)
			(hpglpennumber 1)
			(hpglpenspeed 20)
			(hpglpendiameter 15.000000)
			(pdf_front_fp_property_popups yes)
			(pdf_back_fp_property_popups yes)
			(dxfpolygonmode yes)
			(dxfimperialunits yes)
			(dxfusepcbnewfont yes)
			(psnegative no)
			(psa4output no)
			(plotreference yes)
			(plotvalue yes)
			(plotfptext yes)
			(plotinvisibletext no)
			(sketchpadsonfab no)
			(subtractmaskfromsilk no)
			(outputformat 1)
			(mirror no)
			(drillshape 1)
			(scaleselection 1)
			(outputdirectory "")
		)
	)
	(net 0 "")
	(net 1 "Net-(J1-Pad8)")
	(net 2 "Net-(J1-Pad5)")
	(net 3 "Net-(J1-Pad3)")
	(net 4 "Net-(J1-Pad2)")
	(net 5 "Net-(J1-Pad7)")
	(net 6 "Net-(J1-Pad6)")
	(net 7 "Net-(J1-Pad4)")
	(net 8 "Net-(J1-Pad9)")
	(net 9 "Net-(J1-Pad1)")
	(footprint "Connector_Dsub:DSUB-9_Female_Horizontal_P2.77x2.54mm_EdgePinOffset9.40mm"
		(layer "F.Cu")
		(uuid "0a165977-c162-4600-979f-2d54776b7257")
		(at 144.45 101.130331 180)
		(descr "9-pin D-Sub connector, horizontal/angled (90 deg), THT-mount, female, pitch 2.77x2.54mm, pin-PCB-offset 9.4mm, see http://docs-europe.electrocomponents.com/webdocs/1585/0900766b81585df2.pdf")
		(tags "9-pin D-Sub connector horizontal angled 90deg THT female pitch 2.77x2.54mm pin-PCB-offset 9.4mm")
		(property "Reference" "J1"
			(at -5.54 -1.8 180)
			(layer "F.SilkS")
			(uuid "e11a756c-3329-4399-b558-f6825fbb60e7")
			(effects
				(font
					(size 1 1)
					(thickness 0.15)
				)
			)
		)
		(property "Value" "DE9_Żeński"
			(at -5.54 20.01 180)
			(layer "F.Fab")
			(uuid "c6fcb52c-9609-44f6-a44e-729001e13406")
			(effects
				(font
					(size 1 1)
					(thickness 0.15)
				)
			)
		)
		(property "Footprint" "Connector_Dsub:DSUB-9_Female_Horizontal_P2.77x2.54mm_EdgePinOffset9.40mm"
			(at 0 0 180)
			(unlocked yes)
			(layer "F.Fab")
			(hide yes)
			(uuid "ad55723e-7df8-48e7-bc95-96c0c9e760d7")
			(effects
				(font
					(size 1.27 1.27)
				)
			)
		)
		(property "Datasheet" " ~"
			(at 0 0 180)
			(unlocked yes)
			(layer "F.Fab")
			(hide yes)
			(uuid "b252f2e0-6cf9-4aa6-8163-60d720c9dcce")
			(effects
				(font
					(size 1.27 1.27)
				)
			)
		)
		(property "Description" "9-pin female receptacle socket D-SUB connector"
			(at 0 0 180)
			(unlocked yes)
			(layer "F.Fab")
			(hide yes)
			(uuid "94fdffe7-4eeb-4d33-aa04-4244ee3aa437")
			(effects
				(font
					(size 1.27 1.27)
				)
			)
		)
		(property ki_fp_filters "DSUB*Female*")
		(path "/8013bc03-7ea4-4584-996e-6232d4bc171c")
		(sheetname "Root")
		(sheetfile "tht_de9_to_tht_de9.kicad_sch")
		(attr through_hole)
		(fp_line
			(start 3.07 7.78)
			(end 3.07 11.88)
			(stroke
				(width 0.12)
				(type solid)
			)
			(layer "F.SilkS")
			(uuid "3a980f3b-8c34-46c9-aed2-fb84c557ab63")
		)
		(fp_line
			(start 1.06 7.78)
			(end 3.07 7.78)
			(stroke
				(width 0.12)
				(type solid)
			)
			(layer "F.SilkS")
			(uuid "125b6160-d687-4948-9657-047b2b73d356")
		)
		(fp_line
			(start 1.06 -1.06)
			(end 1.06 7.78)
			(stroke
				(width 0.12)
				(type solid)
			)
			(layer "F.SilkS")
			(uuid "48989fa8-4583-41f9-8d4e-6d7462ea3d54")
		)
		(fp_line
			(start 0.25 -1.754338)
			(end 0 -1.321325)
			(stroke
				(width 0.12)
				(type solid)
			)
			(layer "F.SilkS")
			(uuid "115d1fb9-3067-484b-8953-3e9d91be8e9b")
		)
		(fp_line
			(start 0 -1.321325)
			(end -0.25 -1.754338)
			(stroke
				(width 0.12)
				(type solid)
			)
			(layer "F.SilkS")
			(uuid "01d97a17-58d9-4b5f-850c-b0d06b022b6a")
		)
		(fp_line
			(start -0.25 -1.754338)
			(end 0.25 -1.754338)
			(stroke
				(width 0.12)
				(type solid)
			)
			(layer "F.SilkS")
			(uuid "50c9d6a7-d395-4906-9cba-8eb1b40f25d0")
		)
		(fp_line
			(start -12.14 7.78)
			(end -12.14 -1.06)
			(stroke
				(width 0.12)
				(type solid)
			)
			(layer "F.SilkS")
			(uuid "16b2db1f-7ad2-47a5-97fa-b96294401115")
		)
		(fp_line
			(start -12.14 -1.06)
			(end 1.06 -1.06)
			(stroke
				(width 0.12)
				(type solid)
			)
			(layer "F.SilkS")
			(uuid "6aa6c114-9fca-4eaa-8013-41e7d3fbbe81")
		)
		(fp_line
			(start -14.15 11.88)
			(end -14.15 7.78)
			(stroke
				(width 0.12)
				(type solid)
			)
			(layer "F.SilkS")
			(uuid "559bbfc7-1fc6-4707-b671-a9301bec34f9")
		)
		(fp_line
			(start -14.15 7.78)
			(end -12.14 7.78)
			(stroke
				(width 0.12)
				(type solid)
			)
			(layer "F.SilkS")
			(uuid "50df07b2-1bed-4966-ade0-f1b3f20463fc")
		)
		(fp_line
			(start 10.4 12.85)
			(end 3.15 12.85)
			(stroke
				(width 0.05)
				(type solid)
			)
			(layer "F.CrtYd")
			(uuid "9e4e9d1f-8e9f-424f-9821-f3d836c20c80")
		)
		(fp_line
			(start 10.4 11.45)
			(end 10.4 12.85)
			(stroke
				(width 0.05)
				(type solid)
			)
			(layer "F.CrtYd")
			(uuid "08638d82-f336-4401-b432-d353bc89300e")
		)
		(fp_line
			(start 3.55 11.45)
			(end 10.4 11.45)
			(stroke
				(width 0.05)
				(type solid)
			)
			(layer "F.CrtYd")
			(uuid "0916bf46-6f71-4eb2-a042-93140b1f7a15")
		)
		(fp_line
			(start 3.55 7.35)
			(end 3.55 11.45)
			(stroke
				(width 0.05)
				(type solid)
			)
			(layer "F.CrtYd")
			(uuid "94b8f9bc-8494-4489-a7c3-f6c0d5c19e7c")
		)
		(fp_line
			(start 3.15 19.05)
			(end -14.2 19.05)
			(stroke
				(width 0.05)
				(type solid)
			)
			(layer "F.CrtYd")
			(uuid "2ddb9f3b-58c5-4954-a34c-580c942dbfcf")
		)
		(fp_line
			(start 3.15 12.85)
			(end 3.15 19.05)
			(stroke
				(width 0.05)
				(type solid)
			)
			(layer "F.CrtYd")
			(uuid "5cd04594-5e8f-479b-b360-d1d9a6cc9bac")
		)
		(fp_line
			(start 1.3 7.35)
			(end 3.55 7.35)
			(stroke
				(width 0.05)
				(type solid)
			)
			(layer "F.CrtYd")
			(uuid "144e3a7a-019d-4ee7-9681-5bad92576032")
		)
		(fp_line
			(start 1.3 -1.35)
			(end 1.3 7.35)
			(stroke
				(width 0.05)
				(type solid)
			)
			(layer "F.CrtYd")
			(uuid "bada8a6e-c992-487f-8549-80469cd113e9")
		)
		(fp_line
			(start -12.4 7.35)
			(end -12.4 -1.35)
			(stroke
				(width 0.05)
				(type solid)
			)
			(layer "F.CrtYd")
			(uuid "173c712c-03a3-416a-a97d-379e2eeed5d3")
		)
		(fp_line
			(start -12.4 -1.35)
			(end 1.3 -1.35)
			(stroke
				(width 0.05)
				(type solid)
			)
			(layer "F.CrtYd")
			(uuid "9510ad5e-0193-4a60-808a-b7280a970c98")
		)
		(fp_line
			(start -14.2 19.05)
			(end -14.2 12.85)
			(stroke
				(width 0.05)
				(type solid)
			)
			(layer "F.CrtYd")
			(uuid "fa91a129-e131-4c6f-bb6b-9a9f6926a2ac")
		)
		(fp_line
			(start -14.2 12.85)
			(end -21.5 12.85)
			(stroke
				(width 0.05)
				(type solid)
			)
			(layer "F.CrtYd")
			(uuid "64e39c61-ccb0-427f-b117-03fd124aa4ef")
		)
		(fp_line
			(start -14.6 11.45)
			(end -14.6 7.35)
			(stroke
				(width 0.05)
				(type solid)
			)
			(layer "F.CrtYd")
			(uuid "773ed4d7-1fa8-48e8-8d52-a33473008143")
		)
		(fp_line
			(start -14.6 7.35)
			(end -12.4 7.35)
			(stroke
				(width 0.05)
				(type solid)
			)
			(layer "F.CrtYd")
			(uuid "11ed457d-e8b2-4331-b9d1-587e1f97e453")
		)
		(fp_line
			(start -21.5 12.85)
			(end -21.5 11.45)
			(stroke
				(width 0.05)
				(type solid)
			)
			(layer "F.CrtYd")
			(uuid "72dcba60-7a38-47bb-9b1f-0485f1e4093c")
		)
		(fp_line
			(start -21.5 11.45)
			(end -14.6 11.45)
			(stroke
				(width 0.05)
				(type solid)
			)
			(layer "F.CrtYd")
			(uuid "c4604ca7-fa5d-4112-aee1-3460ce6c0ffa")
		)
		(fp_line
			(start 9.885 12.34)
			(end 9.885 11.94)
			(stroke
				(width 0.1)
				(type solid)
			)
			(layer "F.Fab")
			(uuid "f7b637f2-a1cb-4772-a03f-8f35aaf562aa")
		)
		(fp_line
			(start 9.885 11.94)
			(end -20.965 11.94)
			(stroke
				(width 0.1)
				(type solid)
			)
			(layer "F.Fab")
			(uuid "a910bae0-1793-4532-9784-1bf4f1a71092")
		)
		(fp_line
			(start 3.01 11.94)
			(end 3.01 7.84)
			(stroke
				(width 0.1)
				(type solid)
			)
			(layer "F.Fab")
			(uuid "fb287392-2915-445c-8e70-99666ad73fe9")
		)
		(fp_line
			(start 3.01 7.84)
			(end -14.09 7.84)
			(stroke
				(width 0.1)
				(type solid)
			)
			(layer "F.Fab")
			(uuid "1f5494b5-3984-4707-a04e-d46da7cdaae3")
		)
		(fp_line
			(start 2.61 18.51)
			(end 2.61 12.34)
			(stroke
				(width 0.1)
				(type solid)
			)
			(layer "F.Fab")
			(uuid "4286e4be-4d67-4dc3-b084-f4f209c7c8c1")
		)
		(fp_line
			(start 2.61 12.34)
			(end -13.69 12.34)
			(stroke
				(width 0.1)
				(type solid)
			)
			(layer "F.Fab")
			(uuid "752e7139-862c-4922-9e59-6c9e8c3f08f9")
		)
		(fp_line
			(start 0.1 0)
			(end 0.1 7.84)
			(stroke
				(width 0.1)
				(type solid)
			)
			(layer "F.Fab")
			(uuid "4852804c-9989-436e-adfa-df2fcb7ff2ad")
		)
		(fp_line
			(start 0 0)
			(end 0 7.84)
			(stroke
				(width 0.1)
				(type solid)
			)
			(layer "F.Fab")
			(uuid "cc15d30f-526b-4a06-afea-c1d53146a133")
		)
		(fp_line
			(start -0.1 0)
			(end -0.1 7.84)
			(stroke
				(width 0.1)
				(type solid)
			)
			(layer "F.Fab")
			(uuid "062604ee-f0a6-49bb-97a4-11b9850e05b9")
		)
		(fp_line
			(start -1.285 2.54)
			(end -1.285 7.84)
			(stroke
				(width 0.1)
				(type solid)
			)
			(layer "F.Fab")
			(uuid "36e333a5-35d3-45b0-9071-f5f569fdf2cd")
		)
		(fp_line
			(start -1.385 2.54)
			(end -1.385 7.84)
			(stroke
				(width 0.1)
				(type solid)
			)
			(layer "F.Fab")
			(uuid "379f7c90-90b5-4672-903f-e609628f188f")
		)
		(fp_line
			(start -1.485 2.54)
			(end -1.485 7.84)
			(stroke
				(width 0.1)
				(type solid)
			)
			(layer "F.Fab")
			(uuid "c9d7963d-f62e-460a-b1fc-d3edbbe2fac9")
		)
		(fp_line
			(start -2.67 0)
			(end -2.67 7.84)
			(stroke
				(width 0.1)
				(type solid)
			)
			(layer "F.Fab")
			(uuid "57fcf0bc-825d-431c-815c-1cdcf1bd7e8b")
		)
		(fp_line
			(start -2.77 0)
			(end -2.77 7.84)
			(stroke
				(width 0.1)
				(type solid)
			)
			(layer "F.Fab")
			(uuid "00c1d5b7-2e4b-413a-a291-14af7d2154df")
		)
		(fp_line
			(start -2.87 0)
			(end -2.87 7.84)
			(stroke
				(width 0.1)
				(type solid)
			)
			(layer "F.Fab")
			(uuid "20c7779c-568e-48e8-a97a-56d66ae98f66")
		)
		(fp_line
			(start -4.055 2.54)
			(end -4.055 7.84)
			(stroke
				(width 0.1)
				(type solid)
			)
			(layer "F.Fab")
			(uuid "56756473-3de7-4d25-a385-3e71aa764c6c")
		)
		(fp_line
			(start -4.155 2.54)
			(end -4.155 7.84)
			(stroke
				(width 0.1)
				(type solid)
			)
			(layer "F.Fab")
			(uuid "7d8c5769-b7b8-41c7-9f51-41c85ec97cd9")
		)
		(fp_line
			(start -4.255 2.54)
			(end -4.255 7.84)
			(stroke
				(width 0.1)
				(type solid)
			)
			(layer "F.Fab")
			(uuid "c15cf14d-aa62-478d-85e2-4e5b2159c2ab")
		)
		(fp_line
			(start -5.44 0)
			(end -5.44 7.84)
			(stroke
				(width 0.1)
				(type solid)
			)
			(layer "F.Fab")
			(uuid "753a7397-9b1a-4beb-9d79-e0de44fb1cc3")
		)
		(fp_line
			(start -5.54 0)
			(end -5.54 7.84)
			(stroke
				(width 0.1)
				(type solid)
			)
			(layer "F.Fab")
			(uuid "1fa2b141-5b90-4144-a932-d85d9e014cb1")
		)
		(fp_line
			(start -5.64 0)
			(end -5.64 7.84)
			(stroke
				(width 0.1)
				(type solid)
			)
			(layer "F.Fab")
			(uuid "b2721436-f3fc-4ebc-bdbe-6c9b1916e05e")
		)
		(fp_line
			(start -6.825 2.54)
			(end -6.825 7.84)
			(stroke
				(width 0.1)
				(type solid)
			)
			(layer "F.Fab")
			(uuid "598c5e15-c323-4c3b-9b4d-0e7bfc39707e")
		)
		(fp_line
			(start -6.925 2.54)
			(end -6.925 7.84)
			(stroke
				(width 0.1)
				(type solid)
			)
			(layer "F.Fab")
			(uuid "4d9331c9-7cb5-4e76-b446-39979f2ec94f")
		)
		(fp_line
			(start -7.025 2.54)
			(end -7.025 7.84)
			(stroke
				(width 0.1)
				(type solid)
			)
			(layer "F.Fab")
			(uuid "81ec2d99-e7f1-43cf-9308-4339ce6c9df8")
		)
		(fp_line
			(start -8.21 0)
			(end -8.21 7.84)
			(stroke
				(width 0.1)
				(type solid)
			)
			(layer "F.Fab")
			(uuid "e3afbd60-c5a1-49ac-99f0-06e75db87881")
		)
		(fp_line
			(start -8.31 0)
			(end -8.31 7.84)
			(stroke
				(width 0.1)
				(type solid)
			)
			(layer "F.Fab")
			(uuid "be9bddd3-0843-43f7-980f-c63d4298e5f3")
		)
		(fp_line
			(start -8.41 0)
			(end -8.41 7.84)
			(stroke
				(width 0.1)
				(type solid)
			)
			(layer "F.Fab")
			(uuid "197dfc5a-3feb-4fe9-a690-74c0a82f5d45")
		)
		(fp_line
			(start -9.595 2.54)
			(end -9.595 7.84)
			(stroke
				(width 0.1)
				(type solid)
			)
			(layer "F.Fab")
			(uuid "1bef586e-786a-4527-91b6-666e5feed788")
		)
		(fp_line
			(start -9.695 2.54)
			(end -9.695 7.84)
			(stroke
				(width 0.1)
				(type solid)
			)
			(layer "F.Fab")
			(uuid "49d7f8b8-c058-42e6-81c1-51b8e6b4999e")
		)
		(fp_line
			(start -9.795 2.54)
			(end -9.795 7.84)
			(stroke
				(width 0.1)
				(type solid)
			)
			(layer "F.Fab")
			(uuid "ba1b584e-9d7b-4af1-bc5a-9f41839bf1fb")
		)
		(fp_line
			(start -10.98 0)
			(end -10.98 7.84)
			(stroke
				(width 0.1)
				(type solid)
			)
			(layer "F.Fab")
			(uuid "5526e926-beba-4ab7-9f80-ccef3de90c56")
		)
		(fp_line
			(start -11.08 0)
			(end -11.08 7.84)
			(stroke
				(width 0.1)
				(type solid)
			)
			(layer "F.Fab")
			(uuid "e948e2d0-a8a1-401e-a661-b6505f78e14b")
		)
		(fp_line
			(start -11.18 0)
			(end -11.18 7.84)
			(stroke
				(width 0.1)
				(type solid)
			)
			(layer "F.Fab")
			(uuid "c2206756-3a2b-4fd5-9f43-d8509745f3f5")
		)
		(fp_line
			(start -13.69 18.51)
			(end 2.61 18.51)
			(stroke
				(width 0.1)
				(type solid)
			)
			(layer "F.Fab")
			(uuid "15acdbbf-00a1-4650-83e8-d9103cc6e13a")
		)
		(fp_line
			(start -13.69 12.34)
			(end -13.69 18.51)
			(stroke
				(width 0.1)
				(type solid)
			)
			(layer "F.Fab")
			(uuid "83d4b978-ce84-496d-8879-850ed06226b0")
		)
		(fp_line
			(start -14.09 11.94)
			(end 3.01 11.94)
			(stroke
				(width 0.1)
				(type solid)
			)
			(layer "F.Fab")
			(uuid "09f3a052-6397-4105-b469-de037845805e")
		)
		(fp_line
			(start -14.09 7.84)
			(end -14.09 11.94)
			(stroke
				(width 0.1)
				(type solid)
			)
			(layer "F.Fab")
			(uuid "1a9b49d7-f827-4348-8c21-f6aabe12e4d2")
		)
		(fp_line
			(start -20.965 12.34)
			(end 9.885 12.34)
			(stroke
				(width 0.1)
				(type solid)
			)
			(layer "F.Fab")
			(uuid "7192518e-a8c3-4816-965b-5de9fcf190a9")
		)
		(fp_line
			(start -20.965 11.94)
			(end -20.965 12.34)
			(stroke
				(width 0.1)
				(type solid)
			)
			(layer "F.Fab")
			(uuid "0012c4c9-b5fe-4521-be1b-a1a98cd01c01")
		)
		(fp_text user "${REFERENCE}"
			(at -5.54 15.425 180)
			(layer "F.Fab")
			(uuid "9749142b-441e-46fb-9933-1b242ad08e9c")
			(effects
				(font
					(size 1 1)
					(thickness 0.15)
				)
			)
		)
		(pad "1" thru_hole rect
			(at 0 0 180)
			(size 1.6 1.6)
			(drill 1)
			(layers "*.Cu" "*.Mask")
			(remove_unused_layers no)
			(net 9 "Net-(J1-Pad1)")
			(pinfunction "1")
			(pintype "passive")
			(uuid "ff4ff76e-2778-42df-87c8-fd75a5b3e878")
		)
		(pad "2" thru_hole circle
			(at -2.77 0 180)
			(size 1.6 1.6)
			(drill 1)
			(layers "*.Cu" "*.Mask")
			(remove_unused_layers no)
			(net 4 "Net-(J1-Pad2)")
			(pinfunction "2")
			(pintype "passive")
			(uuid "4c2b4da7-c5aa-42b2-bb6a-b414e824fa09")
		)
		(pad "3" thru_hole circle
			(at -5.54 0 180)
			(size 1.6 1.6)
			(drill 1)
			(layers "*.Cu" "*.Mask")
			(remove_unused_layers no)
			(net 3 "Net-(J1-Pad3)")
			(pinfunction "3")
			(pintype "passive")
			(uuid "43560267-47e2-4e14-aef7-68c986898e24")
		)
		(pad "4" thru_hole circle
			(at -8.31 0 180)
			(size 1.6 1.6)
			(drill 1)
			(layers "*.Cu" "*.Mask")
			(remove_unused_layers no)
			(net 7 "Net-(J1-Pad4)")
			(pinfunction "4")
			(pintype "passive")
			(uuid "b4f9c342-1e0c-414b-a380-073d7d4f9609")
		)
		(pad "5" thru_hole circle
			(at -11.08 0 180)
			(size 1.6 1.6)
			(drill 1)
			(layers "*.Cu" "*.Mask")
			(remove_unused_layers no)
			(net 2 "Net-(J1-Pad5)")
			(pinfunction "5")
			(pintype "passive")
			(uuid "3b6aa1a7-c150-4f06-9f1b-1db8bd837db6")
		)
		(pad "6" thru_hole circle
			(at -1.385 2.54 180)
			(size 1.6 1.6)
			(drill 1)
			(layers "*.Cu" "*.Mask")
			(remove_unused_layers no)
			(net 6 "Net-(J1-Pad6)")
			(pinfunction "6")
			(pintype "passive")
			(uuid "99e9a5e6-37cc-4b17-ba64-b3fa017af965")
		)
		(pad "7" thru_hole circle
			(at -4.155 2.54 180)
			(size 1.6 1.6)
			(drill 1)
			(layers "*.Cu" "*.Mask")
			(remove_unused_layers no)
			(net 5 "Net-(J1-Pad7)")
			(pinfunction "7")
			(pintype "passive")
			(uuid "61dc3211-c71f-407e-90ae-c0e81c8a6587")
		)
		(pad "8" thru_hole circle
			(at -6.925 2.54 180)
			(size 1.6 1.6)
			(drill 1)
			(layers "*.Cu" "*.Mask")
			(remove_unused_layers no)
			(net 1 "Net-(J1-Pad8)")
			(pinfunction "8")
			(pintype "passive")
			(uuid "1d7922b8-0f47-49b3-97ef-34af320177b9")
		)
		(pad "9" thru_hole circle
			(at -9.695 2.54 180)
			(size 1.6 1.6)
			(drill 1)
			(layers "*.Cu" "*.Mask")
			(remove_unused_layers no)
			(net 8 "Net-(J1-Pad9)")
			(pinfunction "9")
			(pintype "passive")
			(uuid "e2d550a6-ba34-4138-af0e-e413e3c5a139")
		)
		(model "${KICAD8_3DMODEL_DIR}/Connector_Dsub.3dshapes/DSUB-9_Female_Horizontal_P2.77x2.54mm_EdgePinOffset9.40mm.wrl"
			(offset
				(xyz 0 0 0)
			)
			(scale
				(xyz 1 1 1)
			)
			(rotate
				(xyz 0 0 0)
			)
		)
	)
	(footprint "Connector_Dsub:DSUB-9_Female_Horizontal_P2.77x2.54mm_EdgePinOffset9.40mm"
		(layer "F.Cu")
		(uuid "2edc20e7-a07a-4351-9eee-5500467542e7")
		(at 155.55 103.869669)
		(descr "9-pin D-Sub connector, horizontal/angled (90 deg), THT-mount, female, pitch 2.77x2.54mm, pin-PCB-offset 9.4mm, see http://docs-europe.electrocomponents.com/webdocs/1585/0900766b81585df2.pdf")
		(tags "9-pin D-Sub connector horizontal angled 90deg THT female pitch 2.77x2.54mm pin-PCB-offset 9.4mm")
		(property "Reference" "J2"
			(at -5.54 -1.8 0)
			(layer "F.SilkS")
			(uuid "6975aa04-337e-4751-acfc-5505df621b37")
			(effects
				(font
					(size 1 1)
					(thickness 0.15)
				)
			)
		)
		(property "Value" "DE9_Żeński"
			(at -5.54 20.01 0)
			(layer "F.Fab")
			(uuid "019a84d3-4256-4f6a-81d9-880352d0545d")
			(effects
				(font
					(size 1 1)
					(thickness 0.15)
				)
			)
		)
		(property "Footprint" "Connector_Dsub:DSUB-9_Female_Horizontal_P2.77x2.54mm_EdgePinOffset9.40mm"
			(at 0 0 0)
			(unlocked yes)
			(layer "F.Fab")
			(hide yes)
			(uuid "2b4110a7-87d0-466c-9ca6-646ee04ab67f")
			(effects
				(font
					(size 1.27 1.27)
				)
			)
		)
		(property "Datasheet" " ~"
			(at 0 0 0)
			(unlocked yes)
			(layer "F.Fab")
			(hide yes)
			(uuid "8b6774cc-e881-4f3b-a4c2-5f8d22b6ee0d")
			(effects
				(font
					(size 1.27 1.27)
				)
			)
		)
		(property "Description" "9-pin female receptacle socket D-SUB connector"
			(at 0 0 0)
			(unlocked yes)
			(layer "F.Fab")
			(hide yes)
			(uuid "b0a85bd1-a7e8-4ef6-9331-0359c6b6489e")
			(effects
				(font
					(size 1.27 1.27)
				)
			)
		)
		(property ki_fp_filters "DSUB*Female*")
		(path "/58f03954-5a09-4a36-97c8-68071de3aeab")
		(sheetname "Root")
		(sheetfile "tht_de9_to_tht_de9.kicad_sch")
		(attr through_hole)
		(fp_line
			(start -14.15 7.78)
			(end -12.14 7.78)
			(stroke
				(width 0.12)
				(type solid)
			)
			(layer "F.SilkS")
			(uuid "9de2ee4e-4fb4-4376-b6a1-8e713ebf96a6")
		)
		(fp_line
			(start -14.15 11.88)
			(end -14.15 7.78)
			(stroke
				(width 0.12)
				(type solid)
			)
			(layer "F.SilkS")
			(uuid "4e88f2f7-3f47-4560-b704-bee50b172b5a")
		)
		(fp_line
			(start -12.14 -1.06)
			(end 1.06 -1.06)
			(stroke
				(width 0.12)
				(type solid)
			)
			(layer "F.SilkS")
			(uuid "8633576f-f7e6-43c4-9ba7-828169698ced")
		)
		(fp_line
			(start -12.14 7.78)
			(end -12.14 -1.06)
			(stroke
				(width 0.12)
				(type solid)
			)
			(layer "F.SilkS")
			(uuid "578440af-d7e4-4912-843c-e5c9c1311c43")
		)
		(fp_line
			(start -0.25 -1.754338)
			(end 0.25 -1.754338)
			(stroke
				(width 0.12)
				(type solid)
			)
			(layer "F.SilkS")
			(uuid "85c9b5e9-024d-43b8-9444-6a4afde17787")
		)
		(fp_line
			(start 0 -1.321325)
			(end -0.25 -1.754338)
			(stroke
				(width 0.12)
				(type solid)
			)
			(layer "F.SilkS")
			(uuid "d69799f4-17ca-4074-bdf5-4a7cb177e821")
		)
		(fp_line
			(start 0.25 -1.754338)
			(end 0 -1.321325)
			(stroke
				(width 0.12)
				(type solid)
			)
			(layer "F.SilkS")
			(uuid "4319e5fc-4546-4558-b5ec-016e5d5f7222")
		)
		(fp_line
			(start 1.06 -1.06)
			(end 1.06 7.78)
			(stroke
				(width 0.12)
				(type solid)
			)
			(layer "F.SilkS")
			(uuid "c452ceff-6571-4b16-98e8-a70333f12e33")
		)
		(fp_line
			(start 1.06 7.78)
			(end 3.07 7.78)
			(stroke
				(width 0.12)
				(type solid)
			)
			(layer "F.SilkS")
			(uuid "19dea417-7d28-41ff-b63c-9c29c251d410")
		)
		(fp_line
			(start 3.07 7.78)
			(end 3.07 11.88)
			(stroke
				(width 0.12)
				(type solid)
			)
			(layer "F.SilkS")
			(uuid "cb75c7e7-780f-4ef0-a26c-07d3030f9c30")
		)
		(fp_line
			(start -21.5 11.45)
			(end -14.6 11.45)
			(stroke
				(width 0.05)
				(type solid)
			)
			(layer "F.CrtYd")
			(uuid "617844a2-f30c-4c60-8a6d-a78f30a5b308")
		)
		(fp_line
			(start -21.5 12.85)
			(end -21.5 11.45)
			(stroke
				(width 0.05)
				(type solid)
			)
			(layer "F.CrtYd")
			(uuid "4aa00b2c-7e70-4368-8ec0-ccd825c8c7b6")
		)
		(fp_line
			(start -14.6 7.35)
			(end -12.4 7.35)
			(stroke
				(width 0.05)
				(type solid)
			)
			(layer "F.CrtYd")
			(uuid "1b6e30bd-42d5-417c-a020-ca459fa05147")
		)
		(fp_line
			(start -14.6 11.45)
			(end -14.6 7.35)
			(stroke
				(width 0.05)
				(type solid)
			)
			(layer "F.CrtYd")
			(uuid "c900393d-a48b-49a9-8ca0-3ab253076381")
		)
		(fp_line
			(start -14.2 12.85)
			(end -21.5 12.85)
			(stroke
				(width 0.05)
				(type solid)
			)
			(layer "F.CrtYd")
			(uuid "f60acb14-2ef3-42c0-8f44-d0771bcbd254")
		)
		(fp_line
			(start -14.2 19.05)
			(end -14.2 12.85)
			(stroke
				(width 0.05)
				(type solid)
			)
			(layer "F.CrtYd")
			(uuid "4c223509-b367-44b3-8d79-d6781428365a")
		)
		(fp_line
			(start -12.4 -1.35)
			(end 1.3 -1.35)
			(stroke
				(width 0.05)
				(type solid)
			)
			(layer "F.CrtYd")
			(uuid "fcd4e22e-095c-4b4f-800e-6527dec90554")
		)
		(fp_line
			(start -12.4 7.35)
			(end -12.4 -1.35)
			(stroke
				(width 0.05)
				(type solid)
			)
			(layer "F.CrtYd")
			(uuid "ec4e87a9-4f8a-404e-a8a9-536192d096cd")
		)
		(fp_line
			(start 1.3 -1.35)
			(end 1.3 7.35)
			(stroke
				(width 0.05)
				(type solid)
			)
			(layer "F.CrtYd")
			(uuid "58e9a514-878c-44bc-8d20-98ad0969836e")
		)
		(fp_line
			(start 1.3 7.35)
			(end 3.55 7.35)
			(stroke
				(width 0.05)
				(type solid)
			)
			(layer "F.CrtYd")
			(uuid "384c0828-cbc0-4211-a0be-67864956cf0d")
		)
		(fp_line
			(start 3.15 12.85)
			(end 3.15 19.05)
			(stroke
				(width 0.05)
				(type solid)
			)
			(layer "F.CrtYd")
			(uuid "c45838c2-da82-4fcd-8dad-6ced888e5e4b")
		)
		(fp_line
			(start 3.15 19.05)
			(end -14.2 19.05)
			(stroke
				(width 0.05)
				(type solid)
			)
			(layer "F.CrtYd")
			(uuid "ab695935-b9d6-4758-9645-0a4f013abf01")
		)
		(fp_line
			(start 3.55 7.35)
			(end 3.55 11.45)
			(stroke
				(width 0.05)
				(type solid)
			)
			(layer "F.CrtYd")
			(uuid "417c5fe2-60fb-48db-b3f3-6dbef94dc133")
		)
		(fp_line
			(start 3.55 11.45)
			(end 10.4 11.45)
			(stroke
				(width 0.05)
				(type solid)
			)
			(layer "F.CrtYd")
			(uuid "46c7e1e3-f4cd-4699-bce4-c64c0121ad45")
		)
		(fp_line
			(start 10.4 11.45)
			(end 10.4 12.85)
			(stroke
				(width 0.05)
				(type solid)
			)
			(layer "F.CrtYd")
			(uuid "8b1273eb-4b83-4b7b-9924-c43c627f5eba")
		)
		(fp_line
			(start 10.4 12.85)
			(end 3.15 12.85)
			(stroke
				(width 0.05)
				(type solid)
			)
			(layer "F.CrtYd")
			(uuid "c71bf078-0b37-41f5-8da5-d956546053d7")
		)
		(fp_line
			(start -20.965 11.94)
			(end -20.965 12.34)
			(stroke
				(width 0.1)
				(type solid)
			)
			(layer "F.Fab")
			(uuid "caaa7250-2a58-407b-8aa7-104847733279")
		)
		(fp_line
			(start -20.965 12.34)
			(end 9.885 12.34)
			(stroke
				(width 0.1)
				(type solid)
			)
			(layer "F.Fab")
			(uuid "c1aec77f-062f-4a69-b9a8-ba335bef0d25")
		)
		(fp_line
			(start -14.09 7.84)
			(end -14.09 11.94)
			(stroke
				(width 0.1)
				(type solid)
			)
			(layer "F.Fab")
			(uuid "da4084ee-0163-4b74-8ae2-d220ced5608f")
		)
		(fp_line
			(start -14.09 11.94)
			(end 3.01 11.94)
			(stroke
				(width 0.1)
				(type solid)
			)
			(layer "F.Fab")
			(uuid "26420e50-67be-4c07-aaf1-28730665db88")
		)
		(fp_line
			(start -13.69 12.34)
			(end -13.69 18.51)
			(stroke
				(width 0.1)
				(type solid)
			)
			(layer "F.Fab")
			(uuid "8ce26d3a-13fe-43c0-81be-24ccd8c6ff23")
		)
		(fp_line
			(start -13.69 18.51)
			(end 2.61 18.51)
			(stroke
				(width 0.1)
				(type solid)
			)
			(layer "F.Fab")
			(uuid "f304dcfb-0b43-40a8-be26-de185f7b7ac2")
		)
		(fp_line
			(start -11.18 0)
			(end -11.18 7.84)
			(stroke
				(width 0.1)
				(type solid)
			)
			(layer "F.Fab")
			(uuid "6b03ac3c-c28e-4d78-940e-fac6d6426a52")
		)
		(fp_line
			(start -11.08 0)
			(end -11.08 7.84)
			(stroke
				(width 0.1)
				(type solid)
			)
			(layer "F.Fab")
			(uuid "5b892c0c-2b5e-46fb-b6ac-686694fa9336")
		)
		(fp_line
			(start -10.98 0)
			(end -10.98 7.84)
			(stroke
				(width 0.1)
				(type solid)
			)
			(layer "F.Fab")
			(uuid "f9af6185-f2d8-407f-aa3b-eab67e33ffff")
		)
		(fp_line
			(start -9.795 2.54)
			(end -9.795 7.84)
			(stroke
				(width 0.1)
				(type solid)
			)
			(layer "F.Fab")
			(uuid "3dc1d985-13f0-447a-baf8-6278779b8fb5")
		)
		(fp_line
			(start -9.695 2.54)
			(end -9.695 7.84)
			(stroke
				(width 0.1)
				(type solid)
			)
			(layer "F.Fab")
			(uuid "53998c9b-633d-4568-9551-06f3948f4b43")
		)
		(fp_line
			(start -9.595 2.54)
			(end -9.595 7.84)
			(stroke
				(width 0.1)
				(type solid)
			)
			(layer "F.Fab")
			(uuid "ea366ffc-7c26-45e0-952f-af4471eb40ee")
		)
		(fp_line
			(start -8.41 0)
			(end -8.41 7.84)
			(stroke
				(width 0.1)
				(type solid)
			)
			(layer "F.Fab")
			(uuid "47064f3c-7d4f-4df1-9ef8-2875e359ae4e")
		)
		(fp_line
			(start -8.31 0)
			(end -8.31 7.84)
			(stroke
				(width 0.1)
				(type solid)
			)
			(layer "F.Fab")
			(uuid "139960e1-8aef-46ce-a49d-93286c5256ce")
		)
		(fp_line
			(start -8.21 0)
			(end -8.21 7.84)
			(stroke
				(width 0.1)
				(type solid)
			)
			(layer "F.Fab")
			(uuid "58cac6ff-5535-4955-aa19-b127e3aad23d")
		)
		(fp_line
			(start -7.025 2.54)
			(end -7.025 7.84)
			(stroke
				(width 0.1)
				(type solid)
			)
			(layer "F.Fab")
			(uuid "5bb348b2-621f-4ae8-a9aa-0f0051062779")
		)
		(fp_line
			(start -6.925 2.54)
			(end -6.925 7.84)
			(stroke
				(width 0.1)
				(type solid)
			)
			(layer "F.Fab")
			(uuid "8e988c34-40d3-4c46-95d3-242adceaa8f6")
		)
		(fp_line
			(start -6.825 2.54)
			(end -6.825 7.84)
			(stroke
				(width 0.1)
				(type solid)
			)
			(layer "F.Fab")
			(uuid "81a7be99-5928-4527-b1cb-9f829866a471")
		)
		(fp_line
			(start -5.64 0)
			(end -5.64 7.84)
			(stroke
				(width 0.1)
				(type solid)
			)
			(layer "F.Fab")
			(uuid "295f47ff-1c07-48f7-bdb6-c8f226a41d35")
		)
		(fp_line
			(start -5.54 0)
			(end -5.54 7.84)
			(stroke
				(width 0.1)
				(type solid)
			)
			(layer "F.Fab")
			(uuid "c2a74ee6-1da1-400c-a72d-8702bb936377")
		)
		(fp_line
			(start -5.44 0)
			(end -5.44 7.84)
			(stroke
				(width 0.1)
				(type solid)
			)
			(layer "F.Fab")
			(uuid "26cc32a7-4c69-4d2e-af1a-f203d5d66f97")
		)
		(fp_line
			(start -4.255 2.54)
			(end -4.255 7.84)
			(stroke
				(width 0.1)
				(type solid)
			)
			(layer "F.Fab")
			(uuid "89be0162-514a-4e79-85a1-7b8e56ddd5cd")
		)
		(fp_line
			(start -4.155 2.54)
			(end -4.155 7.84)
			(stroke
				(width 0.1)
				(type solid)
			)
			(layer "F.Fab")
			(uuid "8c846121-3bed-467a-a74c-c3b2fe582d5d")
		)
		(fp_line
			(start -4.055 2.54)
			(end -4.055 7.84)
			(stroke
				(width 0.1)
				(type solid)
			)
			(layer "F.Fab")
			(uuid "6151e90a-8afc-4b9a-9dd4-6168ab018421")
		)
		(fp_line
			(start -2.87 0)
			(end -2.87 7.84)
			(stroke
				(width 0.1)
				(type solid)
			)
			(layer "F.Fab")
			(uuid "45a8dcef-adf1-4a11-a7e9-2d680970f193")
		)
		(fp_line
			(start -2.77 0)
			(end -2.77 7.84)
			(stroke
				(width 0.1)
				(type solid)
			)
			(layer "F.Fab")
			(uuid "3087ea54-a323-4173-b011-f1079f263aac")
		)
		(fp_line
			(start -2.67 0)
			(end -2.67 7.84)
			(stroke
				(width 0.1)
				(type solid)
			)
			(layer "F.Fab")
			(uuid "2138a774-c162-4ded-97d4-e9d1aa8b567f")
		)
		(fp_line
			(start -1.485 2.54)
			(end -1.485 7.84)
			(stroke
				(width 0.1)
				(type solid)
			)
			(layer "F.Fab")
			(uuid "ca38da87-226d-491e-8c90-7e7aea27353f")
		)
		(fp_line
			(start -1.385 2.54)
			(end -1.385 7.84)
			(stroke
				(width 0.1)
				(type solid)
			)
			(layer "F.Fab")
			(uuid "2cc920a8-9a99-4583-897c-4ccf2779fcc3")
		)
		(fp_line
			(start -1.285 2.54)
			(end -1.285 7.84)
			(stroke
				(width 0.1)
				(type solid)
			)
			(layer "F.Fab")
			(uuid "447e3dc6-6682-412d-be80-214f2fe263a3")
		)
		(fp_line
			(start -0.1 0)
			(end -0.1 7.84)
			(stroke
				(width 0.1)
				(type solid)
			)
			(layer "F.Fab")
			(uuid "da5879ff-ab06-486d-9dee-715a4205e736")
		)
		(fp_line
			(start 0 0)
			(end 0 7.84)
			(stroke
				(width 0.1)
				(type solid)
			)
			(layer "F.Fab")
			(uuid "b20820c8-8674-450b-aeea-7903ccf96970")
		)
		(fp_line
			(start 0.1 0)
			(end 0.1 7.84)
			(stroke
				(width 0.1)
				(type solid)
			)
			(layer "F.Fab")
			(uuid "30fa3405-b6ac-4841-811f-7b7b2bbb22c6")
		)
		(fp_line
			(start 2.61 12.34)
			(end -13.69 12.34)
			(stroke
				(width 0.1)
				(type solid)
			)
			(layer "F.Fab")
			(uuid "5e9ffc06-17b9-4599-866d-b7f3b534a5dd")
		)
		(fp_line
			(start 2.61 18.51)
			(end 2.61 12.34)
			(stroke
				(width 0.1)
				(type solid)
			)
			(layer "F.Fab")
			(uuid "1de3c6a1-fb5b-470d-be2f-be2e72b7d7fc")
		)
		(fp_line
			(start 3.01 7.84)
			(end -14.09 7.84)
			(stroke
				(width 0.1)
				(type solid)
			)
			(layer "F.Fab")
			(uuid "ddad9814-5278-406a-8e94-5f572960cb9b")
		)
		(fp_line
			(start 3.01 11.94)
			(end 3.01 7.84)
			(stroke
				(width 0.1)
				(type solid)
			)
			(layer "F.Fab")
			(uuid "f847760b-6f37-4b0d-aecc-56daf517c410")
		)
		(fp_line
			(start 9.885 11.94)
			(end -20.965 11.94)
			(stroke
				(width 0.1)
				(type solid)
			)
			(layer "F.Fab")
			(uuid "861ed5a1-48dd-4d4d-a6de-473f775c3114")
		)
		(fp_line
			(start 9.885 12.34)
			(end 9.885 11.94)
			(stroke
				(width 0.1)
				(type solid)
			)
			(layer "F.Fab")
			(uuid "a513bc33-e0bb-4a48-b5b1-2dbd6539a7d6")
		)
		(fp_text user "${REFERENCE}"
			(at -5.54 15.425 0)
			(layer "F.Fab")
			(uuid "bed7e929-c29f-4dd1-928f-ca5194c2b16a")
			(effects
				(font
					(size 1 1)
					(thickness 0.15)
				)
			)
		)
		(pad "1" thru_hole rect
			(at 0 0)
			(size 1.6 1.6)
			(drill 1)
			(layers "*.Cu" "*.Mask")
			(remove_unused_layers no)
			(net 9 "Net-(J1-Pad1)")
			(pinfunction "1")
			(pintype "passive")
			(uuid "c5b78120-ac00-4e8d-bd6b-44bcac59c33e")
		)
		(pad "2" thru_hole circle
			(at -2.77 0)
			(size 1.6 1.6)
			(drill 1)
			(layers "*.Cu" "*.Mask")
			(remove_unused_layers no)
			(net 4 "Net-(J1-Pad2)")
			(pinfunction "2")
			(pintype "passive")
			(uuid "8df0c135-ac4d-47f3-9cf5-3ac03c8daf2b")
		)
		(pad "3" thru_hole circle
			(at -5.54 0)
			(size 1.6 1.6)
			(drill 1)
			(layers "*.Cu" "*.Mask")
			(remove_unused_layers no)
			(net 3 "Net-(J1-Pad3)")
			(pinfunction "3")
			(pintype "passive")
			(uuid "1d8756ed-d53c-4356-a844-2b79906ce7a1")
		)
		(pad "4" thru_hole circle
			(at -8.31 0)
			(size 1.6 1.6)
			(drill 1)
			(layers "*.Cu" "*.Mask")
			(remove_unused_layers no)
			(net 7 "Net-(J1-Pad4)")
			(pinfunction "4")
			(pintype "passive")
			(uuid "49bb556a-a461-4d2e-8fd2-e38db6dead44")
		)
		(pad "5" thru_hole circle
			(at -11.08 0)
			(size 1.6 1.6)
			(drill 1)
			(layers "*.Cu" "*.Mask")
			(remove_unused_layers no)
			(net 2 "Net-(J1-Pad5)")
			(pinfunction "5")
			(pintype "passive")
			(uuid "9cea540c-f35b-4268-a708-4cf3463c5040")
		)
		(pad "6" thru_hole circle
			(at -1.385 2.54)
			(size 1.6 1.6)
			(drill 1)
			(layers "*.Cu" "*.Mask")
			(remove_unused_layers no)
			(net 6 "Net-(J1-Pad6)")
			(pinfunction "6")
			(pintype "passive")
			(uuid "f0c86467-93d7-4d8c-ac22-91aac01cc759")
		)
		(pad "7" thru_hole circle
			(at -4.155 2.54)
			(size 1.6 1.6)
			(drill 1)
			(layers "*.Cu" "*.Mask")
			(remove_unused_layers no)
			(net 5 "Net-(J1-Pad7)")
			(pinfunction "7")
			(pintype "passive")
			(uuid "ebb93e29-663b-43c3-8efd-63ca4a42bbda")
		)
		(pad "8" thru_hole circle
			(at -6.925 2.54)
			(size 1.6 1.6)
			(drill 1)
			(layers "*.Cu" "*.Mask")
			(remove_unused_layers no)
			(net 1 "Net-(J1-Pad8)")
			(pinfunction "8")
			(pintype "passive")
			(uuid "893fab57-46df-4385-a297-ec3ab7c0348d")
		)
		(pad "9" thru_hole circle
			(at -9.695 2.54)
			(size 1.6 1.6)
			(drill 1)
			(layers "*.Cu" "*.Mask")
			(remove_unused_layers no)
			(net 8 "Net-(J1-Pad9)")
			(pinfunction "9")
			(pintype "passive")
			(uuid "a240f49f-5090-4801-9af7-9e2334c6253a")
		)
		(model "${KICAD8_3DMODEL_DIR}/Connector_Dsub.3dshapes/DSUB-9_Female_Horizontal_P2.77x2.54mm_EdgePinOffset9.40mm.wrl"
			(offset
				(xyz 0 0 0)
			)
			(scale
				(xyz 1 1 1)
			)
			(rotate
				(xyz 0 0 0)
			)
		)
	)
	(gr_rect
		(start 140 95)
		(end 160 110)
		(stroke
			(width 0.05)
			(type default)
		)
		(fill none)
		(layer "Edge.Cuts")
		(uuid "e270acc3-4667-45f6-9245-61e2e9b51b40")
	)
)